{
    "_id": "31knfVD7lEd8BPrQ",
    "data": {
        "baseItem": null,
        "brokenThreshold": {
            "value": 0
        },
        "bulkCapacity": {
            "value": ""
        },
        "collapsed": {
            "value": false
        },
        "containerId": {
            "value": ""
        },
        "description": {
            "chat": "",
            "unidentified": "",
            "value": "<p>The springy soles of these sturdy leather boots cushion your feet and make each step lighter. These boots give you a +10-foot item bonus to your Speed and a +3 item bonus to Athletics checks to High Jump and Long Jump.</p>\n<p>In addition, when you use the Leap action, you can move 5 feet further if jumping horizontally or 3 feet higher if jumping vertically.</p>\n<hr /><p>Automatically applied effects:</p>\n<ul>\n<li>+10-foot item bonus to Speed</li>\n<li>+3 item bonus to Athletics checks to High Jump and Long Jump</li>\n</ul>"
        },
        "equipped": {
            "value": false
        },
        "equippedBulk": {
            "value": ""
        },
        "hardness": {
            "value": 0
        },
        "hp": {
            "value": 0
        },
        "identification": {
            "misidentified": {},
            "status": "identified",
            "unidentified": {
                "data": {
                    "description": {
                        "value": ""
                    }
                },
                "img": "",
                "name": ""
            }
        },
        "invested": {
            "value": false
        },
        "level": {
            "value": "14"
        },
        "maxHp": {
            "value": 0
        },
        "negateBulk": {
            "value": "0"
        },
        "preciousMaterial": {
            "value": ""
        },
        "preciousMaterialGrade": {
            "value": ""
        },
        "price": {
            "value": "4,250 gp"
        },
        "quantity": {
            "value": 1
        },
        "rules": [
            {
                "key": "PF2E.RuleElement.FlatModifier",
                "selector": "speed",
                "type": "item",
                "value": 10
            },
            {
                "key": "PF2E.RuleElement.FlatModifier",
                "label": "Boots of Bounding (High & Long Jump",
                "predicate": {
                    "any": [
                        "action:high-jump",
                        "action:long-jump"
                    ]
                },
                "selector": "athletics",
                "type": "item",
                "value": 3
            }
        ],
        "size": {
            "value": "med"
        },
        "source": {
            "value": ""
        },
        "stackGroup": {
            "value": ""
        },
        "traits": {
            "custom": "",
            "rarity": {
                "value": "common"
            },
            "value": [
                "invested",
                "magical",
                "transmutation"
            ]
        },
        "usage": {
            "value": "wornshoes"
        },
        "weight": {
            "value": "L"
        }
    },
    "effects": [],
    "flags": {},
    "img": "systems/pf2e/icons/equipment/worn-items/other-worn-items/boots-of-bounding.webp",
    "name": "Boots of Bounding (Greater)",
    "permission": {
        "default": 0
    },
    "type": "equipment"
}
