{
    "_id": "QOUjYRxXHvwMkGAw",
    "data": {
        "baseItem": null,
        "brokenThreshold": {
            "value": 0
        },
        "bulkCapacity": {
            "value": ""
        },
        "collapsed": {
            "value": false
        },
        "containerId": {
            "value": ""
        },
        "description": {
            "value": "<p>You can unfold this @Compendium[pf2e.equipment-srd.Musical Instrument (Virtuoso heavy)]{Musical Instrument (virtuoso percussion instrument)} into a hand drum (1 Bulk), a marching drum set with a shoulder harness and back brace (3 Bulk), or a large standing drum set with a built-in stool (16 Bulk). Changing the folding drum’s size is a 3-action Interact activity, and the drums must have sufficient open space to accommodate their new size.</p>\n<hr />\n<p><strong>Activate</strong> <span class=\"pf2-icon\">1</span> Interact (concentrate)</p>\n<p><strong>Frequency</strong> once per hour;</p>\n<p><strong>Effect</strong> You play a pounding rhythm on the drum. If the next action you use is to cast a composition cantrip that has an emanation, increase the area of the emanation by 30 feet.</p>"
        },
        "equipped": {
            "value": false
        },
        "equippedBulk": {
            "value": ""
        },
        "hardness": {
            "value": 0
        },
        "hp": {
            "value": 0
        },
        "identification": {
            "misidentified": {},
            "status": "identified",
            "unidentified": {
                "data": {
                    "description": {
                        "value": ""
                    }
                },
                "img": "",
                "name": ""
            }
        },
        "invested": {
            "value": false
        },
        "level": {
            "value": "5"
        },
        "maxHp": {
            "value": 0
        },
        "negateBulk": {
            "value": "0"
        },
        "preciousMaterial": {
            "value": ""
        },
        "preciousMaterialGrade": {
            "value": ""
        },
        "price": {
            "value": "160 gp"
        },
        "quantity": {
            "value": 1
        },
        "rules": [],
        "size": {
            "value": "med"
        },
        "source": {
            "value": ""
        },
        "stackGroup": {
            "value": ""
        },
        "traits": {
            "custom": "",
            "rarity": {
                "value": "uncommon"
            },
            "usage": {
                "value": "held-in-one-hand"
            },
            "value": [
                "magical",
                "transmutation"
            ]
        },
        "usage": {
            "value": ""
        },
        "weight": {
            "value": "1"
        }
    },
    "effects": [],
    "flags": {},
    "img": "systems/pf2e/icons/equipment/held-items/folding_drums.webp",
    "name": "Folding Drums",
    "permission": {
        "default": 0
    },
    "type": "equipment"
}
