{
    "_id": "jpQcKMmP1I5674P7",
    "data": {
        "baseItem": null,
        "brokenThreshold": {
            "value": 0
        },
        "bulkCapacity": {
            "value": ""
        },
        "collapsed": {
            "value": false
        },
        "containerId": {
            "value": ""
        },
        "description": {
            "chat": "",
            "unidentified": "",
            "value": "<p>This rune was created by Torag, god of the forge, protection, and strategy, and shared with his greatest artisans and warriors. Torag designed a small number of these seals as gifts to allied good deities; each one is nearly identical but has a different spell effect when using the reaction activation; for instance, Sarenrae's seal casts sunburst instead of earthquake.</p>\n<p>A seal constantly rings with the quiet sound of a hammer striking an anvil when etched onto a runestone. A <em>Forgefather's seal</em> can be etched only onto armor that can bear two or more property runes, and it is so powerful that it takes the place of two property runes. While wearing armor etched with a <em>Forgefather's seal</em>, you gain fire resistance 40. You ignore the armor's check penalty and Speed penalty (if any); if the armor is light or medium, increase its item bonus to AC by 1. In addition, any shield you wield automatically recovers 10 Hit Points at the start of your turn each round.</p>\n<p><span><strong>Activate</strong> <span class=\"pf2-icon\">R</span> Interact; <strong>Frequency</strong> once per hour; <strong>Trigger</strong> You are hit by an attack; <strong>Effect</strong> The <em>Forgefather's seal</em> glows and your armor shakes as it absorbs the blow. The attack's damage is reduced by 100 and you cast <em>earthquake</em> (DC 40), centered directly on the triggering creature. You decide the area of the <em>earthquake</em> when you Cast the Spell, from as small as the size of the creature and up to a 60-foot burst.<br /></span></p>\n<p><span><strong>Activate</strong> <span class=\"pf2-icon\">T</span> Interact; <strong>Frequency</strong> once per day; <strong>Effect</strong> You call upon on the restorative powers of the seal to repair an item within reach. The rune instantly restores the item to full Hit Points, even if the item was destroyed, using the effects of the remake spell, so long as the majority of the item is available for the repair. The seal can restore even magic items and artifacts of its level or lower. Once you have used this ability, the seal's ability to automatically repair shields becomes inactive until the next time you make your daily preparations.<br /></span></p>\n<p><span><strong>Activate</strong> <span class=\"pf2-icon\">F</span> envision; <strong>Trigger</strong> You have not acted yet on your turn; <strong>Effect</strong> You call upon Torag to defend your allies and those around you, sacrificing yourself in the process. Creatures of your choosing within 60 feet recover all their Hit Points. If any of the creatures are dead, they are instead brought back to life with half of their maximum Hit Points. The chosen creatures also gain a +4 status bonus to AC and saving throws, and fast healing 15 for 1 hour. You can use this ability to bring back to life a creature that requires a miracle spell or divine intervention to raise from the dead, as long as you choose no other creatures within 60 feet to recover. Once you use this activation, you are turned into a perfect statue made from stone or metal that depicts you in a glorious pose honoring your sacrifice, and you can never be restored. The <em>Forgefather's seal</em> remains on this statue and can be transferred to another suit of armor or a <em>runestone</em> as normal.<br /></span></p>\n<p><span><strong>Destruction</strong> Using the <em>Forgefather's seal</em> ability to bring the dead back to life on an evil demigod causes it to shatter in a violent explosion that destroys the seal and the statue made as part of the sacrifice, erasing all knowledge of the user from existence. It does, however, bring the evil demigod back to life.</span></p>"
        },
        "equipped": {
            "value": false
        },
        "equippedBulk": {
            "value": ""
        },
        "hardness": {
            "value": 0
        },
        "hp": {
            "value": 0
        },
        "identification": {
            "misidentified": {},
            "status": "identified",
            "unidentified": {
                "data": {
                    "description": {
                        "value": ""
                    }
                },
                "img": "",
                "name": ""
            }
        },
        "invested": {
            "value": false
        },
        "level": {
            "value": "24"
        },
        "maxHp": {
            "value": 0
        },
        "negateBulk": {
            "value": ""
        },
        "preciousMaterial": {
            "value": ""
        },
        "preciousMaterialGrade": {
            "value": ""
        },
        "price": {
            "value": ""
        },
        "quantity": {
            "value": 1
        },
        "rules": [],
        "size": {
            "value": "med"
        },
        "source": {
            "value": ""
        },
        "stackGroup": {
            "value": ""
        },
        "traits": {
            "custom": "",
            "rarity": {
                "value": "rare"
            },
            "usage": {
                "value": "held-in-one-hand"
            },
            "value": [
                "abjuration",
                "artifact",
                "divine"
            ]
        },
        "usage": {
            "value": "held-in-one-hand"
        },
        "weight": {
            "value": "-"
        }
    },
    "effects": [],
    "flags": {},
    "img": "systems/pf2e/icons/equipment/artifacts/forgefathers-seal.webp",
    "name": "Forgefather's Seal",
    "permission": {
        "default": 0
    },
    "type": "equipment"
}
