{
    "_id": "Gq1cZWSKOtJhKd2p",
    "data": {
        "armor": {
            "value": 6
        },
        "armorType": {
            "value": "heavy"
        },
        "baseItem": "full-plate",
        "brokenThreshold": {
            "value": null
        },
        "bulkCapacity": {
            "value": ""
        },
        "check": {
            "value": -3
        },
        "collapsed": {
            "value": false
        },
        "containerId": {
            "value": ""
        },
        "description": {
            "chat": "",
            "unidentified": "",
            "value": "<p>Plate mail consists of interlocking plates that encase nearly the entire body in a carapace of steel. It is costly and heavy, and the wearer often requires help to don it correctly, but it provides some of the best defense armor can supply. A suit of this armor comes with an undercoat of padded armor and a pair of gauntlets.</p>"
        },
        "dex": {
            "value": 0
        },
        "equipped": {
            "value": false
        },
        "equippedBulk": {
            "value": "4"
        },
        "group": {
            "value": "plate"
        },
        "hardness": {
            "value": null
        },
        "hp": {
            "value": null
        },
        "identification": {
            "misidentified": {},
            "status": "identified",
            "unidentified": {
                "data": {
                    "description": {
                        "value": ""
                    }
                },
                "img": "",
                "name": ""
            }
        },
        "invested": {
            "value": false
        },
        "level": {
            "value": 2
        },
        "maxHp": {
            "value": null
        },
        "negateBulk": {
            "value": "0"
        },
        "potency": {},
        "potencyRune": {
            "value": 0
        },
        "preciousMaterial": {
            "value": ""
        },
        "preciousMaterialGrade": {
            "value": ""
        },
        "price": {
            "value": "30 gp"
        },
        "propertyRune1": {
            "value": ""
        },
        "propertyRune2": {
            "value": ""
        },
        "propertyRune3": {
            "value": ""
        },
        "propertyRune4": {
            "value": ""
        },
        "quantity": {
            "value": 1
        },
        "resiliencyRune": {
            "value": ""
        },
        "resilient": {},
        "rules": [
            {
                "key": "PF2E.RuleElement.FlatModifier",
                "predicate": {
                    "not": [
                        "unburdened-iron"
                    ]
                },
                "roll-options": [
                    "all"
                ],
                "selector": "speed",
                "type": "untyped",
                "value": {
                    "brackets": [
                        {
                            "end": 17,
                            "value": -10
                        },
                        {
                            "start": 18,
                            "value": -5
                        }
                    ],
                    "field": "actor|data.abilities.str.value"
                }
            },
            {
                "key": "PF2E.RuleElement.FlatModifier",
                "label": "Bulwark",
                "predicate": {
                    "all": [
                        "damaging-effect"
                    ]
                },
                "selector": "reflex",
                "type": "ability",
                "value": 3
            }
        ],
        "size": {
            "value": "med"
        },
        "source": {
            "value": ""
        },
        "speed": {
            "value": "-10 ft"
        },
        "stackGroup": {
            "value": ""
        },
        "strength": {
            "value": 18
        },
        "traits": {
            "custom": "",
            "rarity": {
                "value": "common"
            },
            "value": [
                "bulwark"
            ]
        },
        "usage": {
            "value": "wornarmor"
        },
        "weight": {
            "value": "5"
        }
    },
    "effects": [],
    "flags": {},
    "img": "systems/pf2e/icons/equipment//armor/fullplate.webp",
    "name": "Full Plate",
    "permission": {
        "default": 0
    },
    "type": "armor"
}
