{
    "_id": "rlDIbl6EQYXQpWVs",
    "data": {
        "baseItem": null,
        "brokenThreshold": {
            "value": 0
        },
        "bulkCapacity": {
            "value": ""
        },
        "collapsed": {
            "value": false
        },
        "containerId": {
            "value": ""
        },
        "description": {
            "chat": "",
            "unidentified": "",
            "value": "<p>A maestro's instrument can be crafted in the form of any variety of handheld musical instrument. A greater maestro's instrument grants you a +3 item bonus to Performance checks while playing music with the instrument.</p>\n<p><strong>Activate</strong> <span class=\"pf2-icon\">D</span> Interact</p>\n<p><strong>Frequency</strong> once per day</p>\n<p><strong>Effect</strong> You can play the instrument to produce the effects of an 8th level (DC 38) @Compendium[pf2e.spells-srd.Charm]{Charm} spell.</p>\n<hr />\n<p><strong>Craft Requirements</strong> You must supply a casting of <em>charm</em> of the appropriate level.</p>\n<p>Automatically applied effects:</p>\n<ul>\n<li>+3 item bonus to Performance checks while playing music with the instrument</li>\n</ul>"
        },
        "equipped": {
            "value": false
        },
        "equippedBulk": {
            "value": ""
        },
        "hardness": {
            "value": 0
        },
        "hp": {
            "value": 0
        },
        "identification": {
            "misidentified": {},
            "status": "identified",
            "unidentified": {
                "data": {
                    "description": {
                        "value": ""
                    }
                },
                "img": "",
                "name": ""
            }
        },
        "invested": {
            "value": false
        },
        "level": {
            "value": "18"
        },
        "maxHp": {
            "value": 0
        },
        "negateBulk": {
            "value": "0"
        },
        "preciousMaterial": {
            "value": ""
        },
        "preciousMaterialGrade": {
            "value": ""
        },
        "price": {
            "value": "19,000 gp"
        },
        "quantity": {
            "value": 1
        },
        "rules": [
            {
                "key": "PF2E.RuleElement.FlatModifier",
                "label": "Maestro's Instrument (playing it)",
                "predicate": {
                    "all": [
                        "playing"
                    ]
                },
                "selector": "performance",
                "type": "item",
                "value": 3
            }
        ],
        "size": {
            "value": "med"
        },
        "source": {
            "value": ""
        },
        "stackGroup": {
            "value": ""
        },
        "traits": {
            "custom": "",
            "rarity": {
                "value": "common"
            },
            "usage": {
                "value": "held-in-two-hands"
            },
            "value": [
                "enchantment",
                "magical"
            ]
        },
        "usage": {
            "value": "held-in-one-hand"
        },
        "weight": {
            "value": "1"
        }
    },
    "effects": [],
    "flags": {},
    "img": "systems/pf2e/icons/equipment/held-items/maestros-instrument.webp",
    "name": "Maestro's Instrument (Greater)",
    "permission": {
        "default": 0
    },
    "type": "equipment"
}
