{
    "_id": "YOgUBjv2YHzPFKUb",
    "data": {
        "baseItem": null,
        "brokenThreshold": {
            "value": 0
        },
        "bulkCapacity": {
            "value": ""
        },
        "collapsed": {
            "value": false
        },
        "containerId": {
            "value": ""
        },
        "description": {
            "chat": "",
            "unidentified": "",
            "value": "<p><span>The most rare and valuable skymetal, orichalcum is coveted for its incredible time-related magical properties. This dull, coppery metal isn't as physically sturdy as adamantine, but orichalcum's time-bending properties protect it, granting it greater Hardness and Hit Points. If an orichalcum item takes damage but isn't destroyed, it repairs itself completely 24 hours later. </span></p><h2>Orichalcum Items</h2>\n<table style=\"width: 381px; user-select: text; color: #191813; font-size: 13px; height: 197px;\" border=\"1\">\n<tbody style=\"box-sizing: border-box; user-select: text;\">\n<tr style=\"box-sizing: border-box; user-select: text; height: 17px;\">\n<td style=\"box-sizing: border-box; user-select: text; color: white; height: 32px; width: 220px; background-color: #522e2c; text-align: center;\">\n<h3><span>Orichalcum</span><span><strong>Items</strong></span></h3>\n</td>\n<td style=\"box-sizing: border-box; user-select: text; color: white; width: 74px; text-align: center; background-color: #522e2c; height: 32px;\">\n<h3><strong style=\"box-sizing: border-box; user-select: text;\"><strong>Hardness</strong></strong> </h3>\n</td>\n<td style=\"box-sizing: border-box; user-select: text; color: white; width: 41px; text-align: center; background-color: #522e2c; height: 32px;\">\n<h3>HP</h3>\n</td>\n<td style=\"box-sizing: border-box; user-select: text; color: white; width: 45px; text-align: center; background-color: #522e2c; height: 32px;\">\n<h3>BT</h3>\n</td>\n</tr>\n<tr style=\"box-sizing: border-box; user-select: text; height: 17px;\">\n<td style=\"box-sizing: border-box; user-select: text; height: 25px; width: 220px; text-align: center; background-color: #f6f1e1;\"><strong>Thin Items</strong></td>\n<td style=\"box-sizing: border-box; user-select: text; width: 74px; text-align: center; background-color: #f6f1e1; height: 25px;\"> </td>\n<td style=\"box-sizing: border-box; user-select: text; width: 41px; text-align: center; background-color: #f6f1e1; height: 25px;\"> </td>\n<td style=\"box-sizing: border-box; user-select: text; width: 45px; text-align: center; background-color: #f6f1e1; height: 25px;\"> </td>\n</tr>\n<tr style=\"box-sizing: border-box; user-select: text; height: 17px;\">\n<td style=\"box-sizing: border-box; user-select: text; height: 25px; width: 220px; text-align: center; background-color: #eee5c8;\">High-grade</td>\n<td style=\"box-sizing: border-box; user-select: text; width: 74px; text-align: center; background-color: #eee5c8; height: 25px;\">16</td>\n<td style=\"box-sizing: border-box; user-select: text; width: 41px; text-align: center; background-color: #eee5c8; height: 25px;\">64</td>\n<td style=\"box-sizing: border-box; user-select: text; width: 45px; text-align: center; background-color: #eee5c8; height: 25px;\">32</td>\n</tr>\n<tr style=\"box-sizing: border-box; user-select: text; height: 19px;\">\n<td style=\"box-sizing: border-box; user-select: text; height: 25px; width: 220px; text-align: center; background-color: #f6f1e1;\"><strong>Items</strong></td>\n<td style=\"box-sizing: border-box; user-select: text; width: 74px; text-align: center; background-color: #f6f1e1; height: 25px;\"> </td>\n<td style=\"box-sizing: border-box; user-select: text; width: 41px; text-align: center; background-color: #f6f1e1; height: 25px;\"> </td>\n<td style=\"box-sizing: border-box; user-select: text; width: 45px; text-align: center; background-color: #f6f1e1; height: 25px;\"> </td>\n</tr>\n<tr style=\"height: 19px;\">\n<td style=\"box-sizing: border-box; user-select: text; width: 220px; text-align: center; background-color: #eee5c8; height: 25px;\">High-grade<strong><br /></strong></td>\n<td style=\"box-sizing: border-box; user-select: text; width: 74px; text-align: center; background-color: #eee5c8; height: 25px;\">18</td>\n<td style=\"box-sizing: border-box; user-select: text; width: 41px; text-align: center; background-color: #eee5c8; height: 25px;\">72</td>\n<td style=\"box-sizing: border-box; user-select: text; width: 45px; text-align: center; background-color: #eee5c8; height: 25px;\">36</td>\n</tr>\n<tr style=\"height: 19px;\">\n<td style=\"box-sizing: border-box; user-select: text; width: 220px; text-align: center; background-color: #f6f1e1; height: 25px;\"><strong>Structure</strong></td>\n<td style=\"box-sizing: border-box; user-select: text; width: 74px; text-align: center; background-color: #f6f1e1; height: 25px;\"> </td>\n<td style=\"box-sizing: border-box; user-select: text; width: 41px; text-align: center; background-color: #f6f1e1; height: 25px;\"> </td>\n<td style=\"box-sizing: border-box; user-select: text; width: 45px; text-align: center; background-color: #f6f1e1; height: 25px;\"> </td>\n</tr>\n<tr style=\"height: 19px;\">\n<td style=\"box-sizing: border-box; user-select: text; width: 220px; text-align: center; background-color: #eee5c8; height: 25px;\">High-grade<strong><br /></strong></td>\n<td style=\"box-sizing: border-box; user-select: text; width: 74px; text-align: center; background-color: #eee5c8; height: 25px;\">35</td>\n<td style=\"box-sizing: border-box; user-select: text; width: 41px; text-align: center; background-color: #eee5c8; height: 25px;\">140</td>\n<td style=\"box-sizing: border-box; user-select: text; width: 45px; text-align: center; background-color: #eee5c8; height: 25px;\">70</td>\n</tr>\n</tbody>\n</table>"
        },
        "equipped": {
            "value": false
        },
        "equippedBulk": {
            "value": ""
        },
        "hardness": {
            "value": 0
        },
        "hp": {
            "value": 0
        },
        "identification": {
            "misidentified": {},
            "status": "identified",
            "unidentified": {
                "data": {
                    "description": {
                        "value": ""
                    }
                },
                "img": "",
                "name": ""
            }
        },
        "invested": {
            "value": false
        },
        "level": {
            "value": "0"
        },
        "maxHp": {
            "value": 0
        },
        "negateBulk": {
            "value": "0"
        },
        "preciousMaterial": {
            "value": ""
        },
        "preciousMaterialGrade": {
            "value": ""
        },
        "price": {
            "value": "1,000 gp"
        },
        "quantity": {
            "value": 1
        },
        "rules": [],
        "size": {
            "value": "med"
        },
        "source": {
            "value": ""
        },
        "stackGroup": {
            "value": ""
        },
        "traits": {
            "custom": "",
            "rarity": {
                "value": "rare"
            },
            "usage": {
                "value": "held-in-one-hand"
            },
            "value": [
                "precious"
            ]
        },
        "usage": {
            "value": "held-in-one-hand"
        },
        "weight": {
            "value": "L"
        }
    },
    "effects": [],
    "flags": {},
    "img": "systems/pf2e/icons/equipment/materials/orichalcum-chunk.webp",
    "name": "Orichalcum Chunk",
    "permission": {
        "default": 0
    },
    "type": "equipment"
}
