{
    "_id": "QDYPr19De3TBIysx",
    "data": {
        "baseItem": null,
        "brokenThreshold": {
            "value": 0
        },
        "bulkCapacity": {
            "value": ""
        },
        "collapsed": {
            "value": false
        },
        "containerId": {
            "value": ""
        },
        "description": {
            "chat": "",
            "unidentified": "",
            "value": "<p><span><em>Sinister knight</em> armor shrouds the wearer's identity in secrecy, allowing Crimson Reclaimers to pass among foes without being immediately unmasked. The wearer gains a +1 item bonus to Deception checks.<br /></span></p>\n<p><span><strong>Activate</strong> <span class=\"pf2-icon\">A</span> envision; <strong>Effect</strong> With a thought, the wearer activates a disguise. While the <em>sinister knight</em> armor's disguise is active, any identifying insignia or aesthetic of the armor is replaced by generic malevolent aesthetics such as spikes or demonic faces. While in the disguise, the wearer is always considered t</span>o be taking precautions against lifesense, and even a creature that successfully notices the wearer with its lifesense mistakes the wearer for an undead unless it critically succeeds at its Perception check or the wearer critically fails a Deception or Stealth check. Finally, while in the disguise, the rune attempts to counteract any effects that would reveal your alignment; on a successful counteract check, rather than negate the effect, the rune causes the effect to perceive your alignment as evil (maintaining any lawful or chaotic component of your alignment).</p>\n<p>The wearer can Dismiss the disguise, and if the wearer's armor is removed, the disguise deactivates automatically.</p>"
        },
        "equipped": {
            "value": false
        },
        "equippedBulk": {
            "value": ""
        },
        "hardness": {
            "value": 0
        },
        "hp": {
            "value": 0
        },
        "identification": {
            "misidentified": {},
            "status": "identified",
            "unidentified": {
                "data": {
                    "description": {
                        "value": ""
                    }
                },
                "img": "",
                "name": ""
            }
        },
        "invested": {
            "value": false
        },
        "level": {
            "value": "8"
        },
        "maxHp": {
            "value": 0
        },
        "negateBulk": {
            "value": ""
        },
        "preciousMaterial": {
            "value": ""
        },
        "preciousMaterialGrade": {
            "value": ""
        },
        "price": {
            "value": "500 gp"
        },
        "quantity": {
            "value": 1
        },
        "rules": [],
        "size": {
            "value": "med"
        },
        "source": {
            "value": ""
        },
        "stackGroup": {
            "value": ""
        },
        "traits": {
            "custom": "",
            "rarity": {
                "value": "uncommon"
            },
            "usage": {
                "value": "held-in-one-hand"
            },
            "value": [
                "abjuration",
                "illusion",
                "magical"
            ]
        },
        "usage": {
            "value": "held-in-one-hand"
        },
        "weight": {
            "value": "-"
        }
    },
    "effects": [],
    "flags": {},
    "img": "systems/pf2e/icons/equipment/runes/armor-property-runes/armor-property-runes.webp",
    "name": "Sinister Knight",
    "permission": {
        "default": 0
    },
    "type": "equipment"
}
