{
    "_id": "ds7j3D8IIyxWd2XI",
    "data": {
        "baseItem": null,
        "brokenThreshold": {
            "value": 0
        },
        "bulkCapacity": {
            "value": ""
        },
        "collapsed": {
            "value": false
        },
        "containerId": {
            "value": ""
        },
        "description": {
            "chat": "",
            "unidentified": "",
            "value": "<p>This rune is a swirling glyph on the front of the armor. A large pair of transparent, ephemeral wings floats out from the back of the armor.</p>\n<p><strong>Activate</strong> <span class=\"pf2-icon\">2</span>command, Interact;</p>\n<p><strong>Frequency</strong> once per hour;</p>\n<p><strong>Effect</strong> You trace the rune on the front of the breastplate and the armor's ephemeral wings grow tangible, granting you a fly Speed of 25 feet or your land Speed, whichever is slower. This effect lasts for 5 minutes or until you Dismiss it. Once the effect ends, the wings disappear completely, reappearing in their ephemeral form 1 hour later.</p>"
        },
        "equipped": {
            "value": false
        },
        "equippedBulk": {
            "value": ""
        },
        "hardness": {
            "value": 0
        },
        "hp": {
            "value": 0
        },
        "identification": {
            "misidentified": {},
            "status": "identified",
            "unidentified": {
                "data": {
                    "description": {
                        "value": ""
                    }
                },
                "img": "",
                "name": ""
            }
        },
        "invested": {
            "value": false
        },
        "level": {
            "value": "13"
        },
        "maxHp": {
            "value": 0
        },
        "negateBulk": {
            "value": "0"
        },
        "preciousMaterial": {
            "value": ""
        },
        "preciousMaterialGrade": {
            "value": ""
        },
        "price": {
            "value": "2,500 gp"
        },
        "quantity": {
            "value": 1
        },
        "rules": [],
        "size": {
            "value": "med"
        },
        "source": {
            "value": ""
        },
        "stackGroup": {
            "value": ""
        },
        "traits": {
            "custom": "",
            "rarity": {
                "value": "common"
            },
            "usage": {
                "value": "etched-onto-armor"
            },
            "value": [
                "magical",
                "transmutation"
            ]
        },
        "usage": {
            "value": "held-in-one-hand"
        },
        "weight": {
            "value": "-"
        }
    },
    "effects": [],
    "flags": {},
    "img": "systems/pf2e/icons/equipment/runes/armor-property-runes/armor-property-runes.webp",
    "name": "Winged",
    "permission": {
        "default": 0
    },
    "type": "equipment"
}
