{
    "_id": "ZzCskCNtjDetelAi",
    "data": {
        "attributes": {
            "ac": {
                "value": 0
            },
            "hardness": 0,
            "hasHealth": true,
            "hp": {
                "details": "",
                "max": 0,
                "temp": 0,
                "value": 0
            },
            "stealth": {
                "details": "<p>(trained)</p>",
                "value": 14
            }
        },
        "creatureType": "",
        "details": {
            "description": "<p>A ghostly host of god callers and their eidolons manifests to defend the barrow against intruders, and the strains of a battle song fill the air.</p>",
            "disable": "<p>DC 22 Deception to appear to be a defender of Storasta, DC 22 Diplomacy to demonstrate benign intentions, or DC 20 Occultism or Religion to ward off the malevolent spiritual energies. Two successful checks are required to disable the haunt, and each attempt requires two actions.</p>",
            "isComplex": true,
            "level": 4,
            "reset": "<p>The haunt dissipates 1 minute after all living creatures leave area C1. Its spiritual energies re-form after 24 hours.</p>",
            "routine": "<p><span class=\"pf2-icon\">A </span>The haunt attacks what it believes is a demonic incursion, dealing [[/r 1d8+3 #mental]] mental damage and [[/r 1d8 #good]] good damage to each living creature in the area (<span data-pf2-saving-throw=\"will\" data-pf2-label=\"Storasta's Last Stand DC\" data-pf2-dc=\"21\" data-pf2-show-dc=\"gm\">basic Will</span> save).</p>"
        },
        "flavourText": "",
        "recallKnowledgeText": "",
        "saves": {
            "fortitude": {
                "rank": 0,
                "saveDetail": "",
                "value": null
            },
            "reflex": {
                "rank": 0,
                "saveDetail": "",
                "value": null
            },
            "will": {
                "rank": 0,
                "saveDetail": "",
                "value": null
            }
        },
        "schema": {
            "version": {
                "value": ""
            }
        },
        "sidebarText": "",
        "source": {
            "value": ""
        },
        "statusEffects": [],
        "traits": {
            "ci": [],
            "di": {
                "custom": "",
                "selected": {},
                "value": []
            },
            "dr": [],
            "dv": [],
            "rarity": {
                "value": "common"
            },
            "size": {
                "value": "med"
            },
            "traits": {
                "custom": "",
                "value": [
                    "haunt"
                ]
            }
        }
    },
    "effects": [],
    "flags": {},
    "img": "systems/pf2e/icons/default-icons/hazard.svg",
    "items": [
        {
            "_id": "31b10V9njzzAr1WU",
            "data": {
                "actionCategory": {
                    "value": "offensive"
                },
                "actionType": {
                    "value": "reaction"
                },
                "actions": {
                    "value": ""
                },
                "description": {
                    "value": "<p><strong>Trigger</strong> One or more living creatures attempts to move past the entryway further into the barrow;</p>\n<p><strong>Effect</strong> Each creature in the area feels their own form warping into that of a hideous demon and must attempt a <span data-pf2-saving-throw=\"will\" data-pf2-traits=\"mental,illusion,occult\" data-pf2-label=\"Hold the Line DC\" data-pf2-dc=\"21\" data-pf2-show-dc=\"gm\">Will</span> save.</p>\n<hr />\n<p><strong>Critical Success</strong> The creature is unaffected by the onslaught of illusions.</p>\n<p><strong>Success</strong> The creature is @Compendium[pf2e.conditionitems.Stupefied]{Stupefied 1}.</p>\n<p><strong>Failure</strong> The creature is @Compendium[pf2e.conditionitems.Stupefied]{Stupefied 2} and believes that it is infused with demonic energy, making it susceptible to good damage (even if it is not of evil alignment) for as long as it remains within the haunt's area.</p>\n<p><strong>Critical Failure</strong> As failure, but the creature also gains weakness 5 to cold iron for the next 24 hours.</p>"
                },
                "requirements": {
                    "value": ""
                },
                "rules": [],
                "slug": null,
                "source": {
                    "value": ""
                },
                "traits": {
                    "custom": "",
                    "rarity": {
                        "value": "common"
                    },
                    "value": [
                        "mental",
                        "illusion",
                        "occult"
                    ]
                },
                "trigger": {
                    "value": ""
                },
                "weapon": {
                    "value": ""
                }
            },
            "effects": [],
            "flags": {},
            "img": "systems/pf2e/icons/actions/Reaction.webp",
            "name": "Hold The Line",
            "sort": 100000,
            "type": "action"
        }
    ],
    "name": "Storasta's Last Stand (3-4)",
    "permission": {
        "default": 0
    },
    "token": {
        "actorId": "ZzCskCNtjDetelAi",
        "actorLink": false,
        "bar1": {
            "attribute": "attributes.hp"
        },
        "bar2": {},
        "brightLight": 0,
        "brightSight": 0,
        "dimLight": 0,
        "dimSight": 0,
        "displayBars": 20,
        "displayName": 20,
        "disposition": 0,
        "flags": {},
        "height": 1,
        "img": "systems/pf2e/icons/default-icons/hazard.svg",
        "lightAlpha": 1,
        "lightAngle": 360,
        "lightAnimation": {
            "intensity": 5,
            "speed": 5
        },
        "lockRotation": false,
        "name": "Storasta's Last Stand",
        "randomImg": false,
        "rotation": 0,
        "scale": 1,
        "sightAngle": 360,
        "tint": null,
        "vision": false,
        "width": 1
    },
    "type": "hazard"
}
