{
    "_id": "Pvuvyd4RKVyiVWlJ",
    "data": {
        "abilities": {
            "cha": {
                "min": 3,
                "mod": 5,
                "value": 20
            },
            "con": {
                "min": 3,
                "mod": 5,
                "value": 20
            },
            "dex": {
                "min": 3,
                "mod": 6,
                "value": 22
            },
            "int": {
                "min": 3,
                "mod": 4,
                "value": 18
            },
            "str": {
                "min": 3,
                "mod": 8,
                "value": 26
            },
            "wis": {
                "min": 3,
                "mod": 5,
                "value": 20
            }
        },
        "attributes": {
            "ac": {
                "check": 0,
                "details": "",
                "dex": 0,
                "item": 0,
                "min": 0,
                "value": 31
            },
            "allSaves": {
                "value": null
            },
            "bonusEncumbranceBulk": 0,
            "bonusLimitBulk": 0,
            "flatbonushp": 0,
            "flatbonussp": 0,
            "hp": {
                "details": "regeneration 15 (deactivated by acid)",
                "max": 260,
                "min": 0,
                "temp": 0,
                "value": 260
            },
            "init": {
                "bonus": 0,
                "value": 0
            },
            "initiative": {
                "ability": "",
                "circumstance": 0,
                "status": 0
            },
            "levelbonushp": 0,
            "levelbonussp": 0,
            "perception": {
                "ability": "wis",
                "item": 0,
                "rank": 0,
                "value": 25
            },
            "resolve": {
                "value": 0
            },
            "shield": {
                "ac": 2,
                "brokenThreshold": 0,
                "hardness": 0,
                "max": 0,
                "min": 0,
                "value": 0
            },
            "sp": {
                "details": "",
                "max": 0,
                "min": 0,
                "value": 0
            },
            "speed": {
                "otherSpeeds": [],
                "special": "",
                "value": "30"
            }
        },
        "currency": {
            "cp": {
                "value": 0
            },
            "gp": {
                "value": 0
            },
            "pp": {
                "value": 0
            },
            "sp": {
                "value": 0
            }
        },
        "customModifiers": {},
        "details": {
            "alignment": {
                "value": "N"
            },
            "ancestry": {
                "value": ""
            },
            "biography": {
                "public": "",
                "value": ""
            },
            "class": {
                "value": ""
            },
            "creatureType": "",
            "deity": {
                "image": "systems/pf2e/assets/sheet/deity.webp",
                "value": ""
            },
            "flavorText": "<p>The bizarre shapeshifters known as mezlans were created ages ago as spies and infiltrators by a long-forgotten ritual infusing a magically constructed ooze with the soul of an exceptional sapient being. Having long since outlasted their creators, mezlans most often dwell alone amongst the ruins of the ancient civilizations they served as mortals.</p>",
            "flavourText": "",
            "heritage": {
                "value": ""
            },
            "keyability": {
                "value": "str"
            },
            "level": {
                "min": 1,
                "value": 14
            },
            "recallKnowledgeText": "",
            "sidebarText": "",
            "source": {
                "value": ""
            }
        },
        "martial": {
            "advanced": {
                "rank": 0,
                "value": 0
            },
            "heavy": {
                "rank": 0,
                "value": 0
            },
            "light": {
                "rank": 0,
                "value": 0
            },
            "martial": {
                "rank": 0,
                "value": 0
            },
            "medium": {
                "rank": 0,
                "value": 0
            },
            "simple": {
                "rank": 0,
                "value": 0
            },
            "unarmed": {
                "rank": 0,
                "value": 0
            },
            "unarmored": {
                "rank": 0,
                "value": 0
            }
        },
        "saves": {
            "fortitude": {
                "ability": "con",
                "item": 0,
                "rank": 0,
                "saveDetail": "",
                "value": 25
            },
            "reflex": {
                "ability": "dex",
                "item": 0,
                "rank": 0,
                "saveDetail": "",
                "value": 28
            },
            "will": {
                "ability": "wis",
                "item": 0,
                "rank": 0,
                "saveDetail": "",
                "value": 23
            }
        },
        "schema": {
            "version": {
                "value": ""
            }
        },
        "spells": {
            "spell0": {
                "max": 0
            },
            "spell1": {
                "max": 0
            },
            "spell10": {
                "max": 0
            },
            "spell11": {
                "max": 0
            },
            "spell2": {
                "max": 0
            },
            "spell3": {
                "max": 0
            },
            "spell4": {
                "max": 0
            },
            "spell5": {
                "max": 0
            },
            "spell6": {
                "max": 0
            },
            "spell7": {
                "max": 0
            },
            "spell8": {
                "max": 0
            },
            "spell9": {
                "max": 0
            }
        },
        "statusEffects": [],
        "traits": {
            "attitude": {
                "value": "hostile"
            },
            "ci": [],
            "di": {
                "custom": "",
                "value": [
                    "critical-hits",
                    "precision",
                    "unconscious"
                ]
            },
            "dr": [],
            "dv": [
                {
                    "exceptions": "",
                    "label": "Acid",
                    "type": "acid",
                    "value": 10
                }
            ],
            "languages": {
                "custom": "polyglot",
                "selected": [],
                "value": [
                    "aklo",
                    "azlanti"
                ]
            },
            "rarity": {
                "value": "rare"
            },
            "senses": {
                "value": "darkvision"
            },
            "size": {
                "value": "med"
            },
            "traits": {
                "custom": "",
                "value": [
                    "ooze"
                ]
            }
        }
    },
    "effects": [],
    "flags": {},
    "img": "systems/pf2e/icons/default-icons/npc.svg",
    "items": [
        {
            "_id": "dHCnMadBsh7HsABT",
            "data": {
                "attack": {
                    "value": ""
                },
                "attackEffects": {
                    "custom": "",
                    "value": []
                },
                "baseItem": null,
                "bonus": {
                    "value": 30
                },
                "brokenThreshold": {
                    "value": 0
                },
                "bulkCapacity": {
                    "value": ""
                },
                "collapsed": {
                    "value": false
                },
                "containerId": {
                    "value": ""
                },
                "damageRolls": {
                    "0": {
                        "damage": "3d12+14",
                        "damageType": "bludgeoning"
                    }
                },
                "description": {
                    "value": ""
                },
                "equipped": {
                    "value": false
                },
                "equippedBulk": {
                    "value": ""
                },
                "hardness": {
                    "value": 0
                },
                "hp": {
                    "value": 0
                },
                "invested": {
                    "value": false
                },
                "maxHp": {
                    "value": 0
                },
                "negateBulk": {
                    "value": "0"
                },
                "preciousMaterial": {
                    "value": ""
                },
                "preciousMaterialGrade": {
                    "value": ""
                },
                "price": {
                    "value": 0
                },
                "quantity": {
                    "value": 1
                },
                "rules": [],
                "size": {
                    "value": "med"
                },
                "slug": null,
                "source": {
                    "value": ""
                },
                "stackGroup": {
                    "value": ""
                },
                "traits": {
                    "custom": "",
                    "rarity": {
                        "value": "common"
                    },
                    "value": [
                        "magical",
                        "versatile-p",
                        "versatile-s"
                    ]
                },
                "weaponType": {
                    "value": "melee"
                },
                "weight": {
                    "value": 0
                }
            },
            "effects": [],
            "flags": {},
            "img": "systems/pf2e/icons/default-icons/mystery-man.svg",
            "name": "Polymorphic Appendage",
            "sort": 100000,
            "type": "melee"
        },
        {
            "_id": "mM2VhVOnYEHZ9vNy",
            "data": {
                "attack": {
                    "value": ""
                },
                "attackEffects": {
                    "custom": "",
                    "value": [
                        "Viscous Trap"
                    ]
                },
                "baseItem": null,
                "bonus": {
                    "value": 28
                },
                "brokenThreshold": {
                    "value": 0
                },
                "bulkCapacity": {
                    "value": ""
                },
                "collapsed": {
                    "value": false
                },
                "containerId": {
                    "value": ""
                },
                "damageRolls": {},
                "description": {
                    "value": ""
                },
                "equipped": {
                    "value": false
                },
                "equippedBulk": {
                    "value": ""
                },
                "hardness": {
                    "value": 0
                },
                "hp": {
                    "value": 0
                },
                "invested": {
                    "value": false
                },
                "maxHp": {
                    "value": 0
                },
                "negateBulk": {
                    "value": "0"
                },
                "preciousMaterial": {
                    "value": ""
                },
                "preciousMaterialGrade": {
                    "value": ""
                },
                "price": {
                    "value": 0
                },
                "quantity": {
                    "value": 1
                },
                "rules": [],
                "size": {
                    "value": "med"
                },
                "slug": null,
                "source": {
                    "value": ""
                },
                "stackGroup": {
                    "value": ""
                },
                "traits": {
                    "custom": "",
                    "rarity": {
                        "value": "common"
                    },
                    "value": [
                        "range-increment-30"
                    ]
                },
                "weaponType": {
                    "value": "ranged"
                },
                "weight": {
                    "value": 0
                }
            },
            "effects": [],
            "flags": {},
            "img": "systems/pf2e/icons/default-icons/mystery-man.svg",
            "name": "Ooze Globule",
            "sort": 200000,
            "type": "melee"
        },
        {
            "_id": "KluTBobaNmcJwryy",
            "data": {
                "actionCategory": {
                    "value": "interaction"
                },
                "actionType": {
                    "value": "passive"
                },
                "actions": {
                    "value": ""
                },
                "description": {
                    "chat": "",
                    "unidentified": "",
                    "value": "<p>A monster with darkvision can see perfectly well in areas of darkness and dim light, though such vision is in black and white only. Some forms of magical darkness, such as a 4th-level @Compendium[pf2e.spells-srd.Darkness]{Darkness} spell, block normal darkvision. A monster with @Compendium[pf2e.bestiary-ability-glossary-srd.Greater Darkvision]{Greater Darkvision}, however, can see through even these forms of magical darkness.</p>"
                },
                "requirements": {
                    "value": ""
                },
                "rules": [],
                "slug": "darkvision",
                "source": {
                    "value": ""
                },
                "traits": {
                    "custom": "",
                    "rarity": {
                        "value": "common"
                    },
                    "value": []
                },
                "trigger": {
                    "value": ""
                },
                "weapon": {
                    "value": ""
                }
            },
            "effects": [],
            "flags": {
                "core": {
                    "sourceId": "Compendium.pf2e.bestiary-ability-glossary-srd.qCCLZhnp2HhP3Ex6"
                }
            },
            "img": "systems/pf2e/icons/default-icons/action.svg",
            "name": "Darkvision",
            "sort": 300000,
            "type": "action"
        },
        {
            "_id": "m2xn36z0bizgQRSl",
            "data": {
                "actionCategory": {
                    "value": "defensive"
                },
                "actionType": {
                    "value": "passive"
                },
                "actions": {
                    "value": ""
                },
                "description": {
                    "value": "<p>A mezlan can speak and understand any language they hear spoken after listening to the language for 1 minute. These languages fade from their mind after 24 hours.</p>"
                },
                "requirements": {
                    "value": ""
                },
                "rules": [],
                "slug": null,
                "source": {
                    "value": ""
                },
                "traits": {
                    "custom": "",
                    "rarity": {
                        "value": "common"
                    },
                    "value": []
                },
                "trigger": {
                    "value": ""
                },
                "weapon": {
                    "value": ""
                }
            },
            "effects": [],
            "flags": {},
            "img": "systems/pf2e/icons/default-icons/mystery-man.svg",
            "name": "Polyglot",
            "sort": 400000,
            "type": "action"
        },
        {
            "_id": "VZVdci43sd9eSYaO",
            "data": {
                "actionCategory": {
                    "value": "defensive"
                },
                "actionType": {
                    "value": "reaction"
                },
                "actions": {
                    "value": ""
                },
                "description": {
                    "value": "<p><strong>Trigger</strong> The mezlan succeeds at a saving throw against a single-target spell;</p>\n<p><strong>Effect</strong> The mezlan absorbs the spell, nullifying its effect and storing it for later. They can Cast the Spell using the original caster’s spell attack modifier and DC. They can store only one spell at a time, but they can absorb a new spell to replace the spell they currently have stored.</p>\n<p>A willing caster can allow the mezlan to Absorb a Spell without requiring a save.</p>"
                },
                "requirements": {
                    "value": ""
                },
                "rules": [],
                "slug": null,
                "source": {
                    "value": ""
                },
                "traits": {
                    "custom": "",
                    "rarity": {
                        "value": "common"
                    },
                    "value": []
                },
                "trigger": {
                    "value": ""
                },
                "weapon": {
                    "value": ""
                }
            },
            "effects": [],
            "flags": {},
            "img": "systems/pf2e/icons/actions/Reaction.webp",
            "name": "Absorb Spell",
            "sort": 500000,
            "type": "action"
        },
        {
            "_id": "HX5VU8Xvb5yPZ2aH",
            "data": {
                "actionCategory": {
                    "value": "defensive"
                },
                "actionType": {
                    "value": "passive"
                },
                "actions": {
                    "value": ""
                },
                "description": {
                    "value": "<p>When the mezlan is reduced to 0 Hit Points, their body dissolves into colorless slime and begins seeping into nearby cracks or porous surfaces.</p>\n<p>If this material is not immediately contained or destroyed, the mezlan will eventually re-form, though they may lie dormant for years or even decades before doing so.</p>"
                },
                "requirements": {
                    "value": ""
                },
                "rules": [],
                "slug": null,
                "source": {
                    "value": ""
                },
                "traits": {
                    "custom": "",
                    "rarity": {
                        "value": "common"
                    },
                    "value": []
                },
                "trigger": {
                    "value": ""
                },
                "weapon": {
                    "value": ""
                }
            },
            "effects": [],
            "flags": {},
            "img": "systems/pf2e/icons/default-icons/mystery-man.svg",
            "name": "Discorporate",
            "sort": 600000,
            "type": "action"
        },
        {
            "_id": "jB6DPG2ZqtuA1Z3r",
            "data": {
                "actionCategory": {
                    "value": "defensive"
                },
                "actionType": {
                    "value": "passive"
                },
                "actions": {
                    "value": ""
                },
                "description": {
                    "chat": "",
                    "unidentified": "",
                    "value": "<p><strong>Deactivated by</strong> acid</p>\n<p>This monster regains the listed number of Hit Points each round at the beginning of its turn. Its @Compendium[pf2e.conditionitems.Dying]{Dying} condition never increases beyond Dying 3 as long as its regeneration is active. However, if it takes damage of a type listed in the regeneration entry, its regeneration deactivates until the end of its next turn. Deactivate the regeneration before applying any damage of a listed type, since that damage might kill the monster by bringing it to Dying 4.</p>"
                },
                "requirements": {
                    "value": ""
                },
                "rules": [],
                "slug": "regeneration",
                "source": {
                    "value": ""
                },
                "traits": {
                    "custom": "",
                    "rarity": {
                        "value": "common"
                    },
                    "value": []
                },
                "trigger": {
                    "value": ""
                },
                "weapon": {
                    "value": ""
                }
            },
            "effects": [],
            "flags": {
                "core": {
                    "sourceId": "Compendium.pf2e.bestiary-ability-glossary-srd.lR9R5Vld8Eu2Dha5"
                }
            },
            "img": "systems/pf2e/icons/default-icons/mystery-man.svg",
            "name": "Regeneration 15 (Deactivated by Acid)",
            "sort": 700000,
            "type": "action"
        },
        {
            "_id": "cKPht63RYzs7KnVb",
            "data": {
                "actionCategory": {
                    "value": "defensive"
                },
                "actionType": {
                    "value": "passive"
                },
                "actions": {
                    "value": ""
                },
                "description": {
                    "value": ""
                },
                "requirements": {
                    "value": ""
                },
                "rules": [
                    {
                        "key": "PF2E.RuleElement.FlatModifier",
                        "predicate": {
                            "any": [
                                "magical",
                                "arcane",
                                "primal",
                                "occult",
                                "divine"
                            ]
                        },
                        "selector": "saving-throw",
                        "type": "status",
                        "value": 1
                    }
                ],
                "slug": null,
                "source": {
                    "value": ""
                },
                "traits": {
                    "custom": "",
                    "rarity": {
                        "value": "common"
                    },
                    "value": []
                },
                "trigger": {
                    "value": ""
                },
                "weapon": {
                    "value": ""
                }
            },
            "effects": [],
            "flags": {
                "core": {
                    "sourceId": "Item.9xFBHMzNHhGbTKKM"
                }
            },
            "img": "systems/pf2e/icons/default-icons/mystery-man.svg",
            "name": "+1 Status Bonus on Saves vs Magic",
            "sort": 800000,
            "type": "action"
        },
        {
            "_id": "LfpK0azkldAisbCY",
            "data": {
                "actionCategory": {
                    "value": "offensive"
                },
                "actionType": {
                    "value": "action"
                },
                "actions": {
                    "value": "1"
                },
                "description": {
                    "value": "<p>The mezlan extends one of their limbs, granting themself a reach of 20 feet with their polymorphic appendages until the end of their next turn.</p>"
                },
                "requirements": {
                    "value": ""
                },
                "rules": [],
                "slug": null,
                "source": {
                    "value": ""
                },
                "traits": {
                    "custom": "",
                    "rarity": {
                        "value": "common"
                    },
                    "value": []
                },
                "trigger": {
                    "value": ""
                },
                "weapon": {
                    "value": ""
                }
            },
            "effects": [],
            "flags": {},
            "img": "systems/pf2e/icons/actions/OneAction.webp",
            "name": "Extend Limb",
            "sort": 900000,
            "type": "action"
        },
        {
            "_id": "VPwJArBSwEFYQLmI",
            "data": {
                "actionCategory": {
                    "value": "offensive"
                },
                "actionType": {
                    "value": "passive"
                },
                "actions": {
                    "value": ""
                },
                "description": {
                    "value": "<p>A creature hit by the mezlan’s ooze globule takes a -15-foot circumstance penalty to all Speeds for 1 minute. On a critical hit, a target standing on a solid surface also becomes @Compendium[pf2e.conditionitems.Immobilized]{Immobilized}, while a target Flying via wings falls to the ground and becomes unable to Fly.</p>\n<p>A target can end all effects by @Compendium[pf2e.actionspf2e.Escape]{Escaping} (DC 32) or spending a total of 3 @Compendium[pf2e.actionspf2e.Interact]{Interact} actions to free itself.</p>"
                },
                "requirements": {
                    "value": ""
                },
                "rules": [],
                "slug": null,
                "source": {
                    "value": ""
                },
                "traits": {
                    "custom": "",
                    "rarity": {
                        "value": "common"
                    },
                    "value": []
                },
                "trigger": {
                    "value": ""
                },
                "weapon": {
                    "value": ""
                }
            },
            "effects": [],
            "flags": {},
            "img": "systems/pf2e/icons/default-icons/mystery-man.svg",
            "name": "Viscous Trap",
            "sort": 1000000,
            "type": "action"
        },
        {
            "_id": "0yTcCw02hLLf5qMi",
            "data": {
                "actionCategory": {
                    "value": "offensive"
                },
                "actionType": {
                    "value": "action"
                },
                "actions": {
                    "value": "1"
                },
                "description": {
                    "chat": "",
                    "unidentified": "",
                    "value": "<p><span style=\"color: var(--body);\">The mezlan assumes the form of any Medium or Small creature, excluding those with the elemental, incorporeal, or swarm traits but including specific individuals whose appearance they’ve seen. This doesn’t change the mezlan’s Speed or their attack and damage bonus with their Strikes, but the damage type dealt by their Strikes might change based on their new form.</span></p>\n<p>The monster changes its shape indefinitely. It can use this action again to return to its natural shape or adopt a new shape. Unless otherwise noted, a monster cannot use Change Shape to appear as a specific individual. Using Change Shape counts as creating a disguise for the @Compendium[pf2e.action-macros.Impersonate: Deception]{Impersonate} use of Deception. The monster's transformation automatically defeats Perception DCs to determine whether the creature is a member of the ancestry or creature type into which it transformed, and it gains a +4 status bonus to its Deception DC to prevent others from seeing through its disguise. Change Shape abilities specify what shapes the monster can adopt. The monster doesn't gain any special abilities of the new shape, only its physical form. For example, in each shape, it replaces its normal Speeds and Strikes, and might potentially change its senses or size. Any changes are listed in its stat block.</p>"
                },
                "requirements": {
                    "value": ""
                },
                "rules": [],
                "slug": "change-shape",
                "source": {
                    "value": ""
                },
                "traits": {
                    "custom": "[magical tradition]",
                    "rarity": {
                        "value": "common"
                    },
                    "value": [
                        "concentrate",
                        "polymorph",
                        "transmutation",
                        "custom"
                    ]
                },
                "trigger": {
                    "value": ""
                },
                "weapon": {
                    "value": ""
                }
            },
            "effects": [],
            "flags": {
                "core": {
                    "sourceId": "Compendium.pf2e.bestiary-ability-glossary-srd.eQM5hQ1W3d1uen97"
                }
            },
            "img": "systems/pf2e/icons/actions/OneAction.webp",
            "name": "Change Shape",
            "sort": 1100000,
            "type": "action"
        },
        {
            "_id": "DyyeMB58jc4js7Zu",
            "data": {
                "description": {
                    "value": ""
                },
                "item": {
                    "value": 0
                },
                "mod": {
                    "value": 28
                },
                "proficient": {
                    "value": 0
                },
                "rules": [],
                "slug": null,
                "source": {
                    "value": ""
                },
                "traits": {
                    "custom": "",
                    "rarity": {
                        "value": "common"
                    },
                    "value": []
                }
            },
            "effects": [],
            "flags": {},
            "img": "systems/pf2e/icons/default-icons/lore.svg",
            "name": "Athletics",
            "sort": 1200000,
            "type": "lore"
        },
        {
            "_id": "a9pJTuCtvZCUpnCc",
            "data": {
                "description": {
                    "value": ""
                },
                "item": {
                    "value": 0
                },
                "mod": {
                    "value": 27
                },
                "proficient": {
                    "value": 0
                },
                "rules": [
                    {
                        "key": "PF2E.RuleElement.FlatModifier",
                        "label": "To Impersonate",
                        "predicate": {
                            "all": [
                                "action:impersonate"
                            ]
                        },
                        "selector": "deception",
                        "value": 4
                    }
                ],
                "slug": null,
                "source": {
                    "value": ""
                },
                "traits": {
                    "custom": "",
                    "rarity": {
                        "value": "common"
                    },
                    "value": []
                },
                "variants": {
                    "0": {
                        "label": "+31 to Impersonate",
                        "options": "action:impersonate"
                    }
                }
            },
            "effects": [],
            "flags": {},
            "img": "systems/pf2e/icons/default-icons/lore.svg",
            "name": "Deception",
            "sort": 1300000,
            "type": "lore"
        },
        {
            "_id": "z2VdkSe9B7frggjy",
            "data": {
                "description": {
                    "value": ""
                },
                "item": {
                    "value": 0
                },
                "mod": {
                    "value": 24
                },
                "proficient": {
                    "value": 0
                },
                "rules": [],
                "slug": null,
                "source": {
                    "value": ""
                },
                "traits": {
                    "custom": "",
                    "rarity": {
                        "value": "common"
                    },
                    "value": []
                }
            },
            "effects": [],
            "flags": {},
            "img": "systems/pf2e/icons/default-icons/lore.svg",
            "name": "Occultism",
            "sort": 1400000,
            "type": "lore"
        },
        {
            "_id": "2tv1ASDA6d0CoMsT",
            "data": {
                "description": {
                    "value": ""
                },
                "item": {
                    "value": 0
                },
                "mod": {
                    "value": 28
                },
                "proficient": {
                    "value": 0
                },
                "rules": [],
                "slug": null,
                "source": {
                    "value": ""
                },
                "traits": {
                    "custom": "",
                    "rarity": {
                        "value": "common"
                    },
                    "value": []
                }
            },
            "effects": [],
            "flags": {},
            "img": "systems/pf2e/icons/default-icons/lore.svg",
            "name": "Stealth",
            "sort": 1500000,
            "type": "lore"
        }
    ],
    "name": "Mezlan",
    "permission": {
        "default": 0
    },
    "token": {
        "actorId": "Pvuvyd4RKVyiVWlJ",
        "actorLink": false,
        "bar1": {
            "attribute": "attributes.hp"
        },
        "bar2": {},
        "brightLight": 0,
        "brightSight": 0,
        "dimLight": 0,
        "dimSight": 0,
        "displayBars": 20,
        "displayName": 20,
        "disposition": -1,
        "flags": {},
        "height": 1,
        "img": "systems/pf2e/icons/default-icons/npc.svg",
        "lightAlpha": 1,
        "lightAngle": 360,
        "lightAnimation": {
            "intensity": 5,
            "speed": 5
        },
        "lockRotation": false,
        "name": "Mezlan",
        "randomImg": false,
        "rotation": 0,
        "scale": 1,
        "sightAngle": 360,
        "tint": null,
        "vision": false,
        "width": 1
    },
    "type": "npc"
}
