{
    "_id": "2u915NdUyQan6uKF",
    "data": {
        "actionCategory": {
            "value": ""
        },
        "actionType": {
            "value": "action"
        },
        "actions": {
            "value": "1"
        },
        "description": {
            "chat": "",
            "unidentified": "",
            "value": "<p>With a sudden shout, a well-timed taunt, or a cutting put-down, you can shake an enemy's resolve. Choose a creature within 30 feet of you who you're aware of. Attempt an <span data-pf2-action=\"demoralize\" data-pf2-glyph=\"A\">Intimidation</span> check against that target's Will DC. If the target does not understand the language you are speaking, or you're not speaking a language, you take a -4 circumstance penalty to the check. Regardless of your result, the target is temporarily immune to your attempts to Demoralize it for 10 minutes.</p>\n<hr />\n<p><strong>Critical Success</strong> The target becomes @Compendium[pf2e.conditionitems.Frightened]{Frightened 2}.</p>\n<p><strong>Success</strong> The target becomes @Compendium[pf2e.conditionitems.Frightened]{Frightened 1}.</p>"
        },
        "requirements": {
            "value": ""
        },
        "rules": [],
        "source": {
            "value": ""
        },
        "traits": {
            "custom": "",
            "rarity": {
                "value": "common"
            },
            "value": [
                "auditory",
                "concentrate",
                "emotion",
                "fear",
                "mental"
            ]
        },
        "trigger": {
            "value": ""
        },
        "weapon": {
            "value": ""
        }
    },
    "effects": [],
    "flags": {},
    "img": "systems/pf2e/icons/actions/OneAction.webp",
    "name": "Demoralize",
    "permission": {
        "default": 0
    },
    "type": "action"
}
