{
    "_id": "ah41XCrV4LFsVyzl",
    "data": {
        "description": {
            "chat": "",
            "unidentified": "",
            "value": "<p>Granted by @Compendium[pf2e.equipment-srd.Shield of the Unified Legion]{Shield of the Unified Legion}</p>\n<hr />\n<p>Auomatically applied effects:</p>\n<ul>\n<li>gain a +2 circumstance bonus to AC so long as you are within 30 feet of the shield's wielder and they have the shield raised</li>\n</ul>"
        },
        "duration": {
            "expiry": "turn-start",
            "sustained": false,
            "unit": "unlimited",
            "value": -1
        },
        "level": {
            "value": 20
        },
        "rules": [
            {
                "key": "PF2E.RuleElement.FlatModifier",
                "selector": "ac",
                "type": "circumstance",
                "value": 2
            },
            {
                "key": "PF2E.RuleElement.TokenEffectIcon"
            }
        ],
        "source": {
            "value": ""
        },
        "start": {
            "initiative": null,
            "value": 0
        },
        "traits": {
            "custom": "",
            "rarity": {
                "value": "common"
            },
            "value": []
        }
    },
    "effects": [],
    "flags": {},
    "img": "systems/pf2e/icons/equipment/shields/specific-shields/shield-of-the-unified-legion.webp",
    "name": "Effect: Shield of the Unified Legion",
    "permission": {
        "default": 0
    },
    "type": "effect"
}
