{
    "_id": "92lgSEPFIDLvKOCF",
    "data": {
        "description": {
            "chat": "",
            "unidentified": "",
            "value": "<p>Your familiar helps you perform. Whenever you attempt a Performance check, if your familiar is nearby and can act, it accompanies you with chirps, claps, or its own miniature instrument. This grants you a +1 circumstance bonus, or +2 if you're a master in Performance.</p>"
        },
        "level": {
            "value": 1
        },
        "rules": [],
        "source": {
            "value": ""
        },
        "traits": {
            "custom": "",
            "rarity": {
                "value": "common"
            },
            "value": []
        }
    },
    "effects": [],
    "flags": {},
    "img": "systems/pf2e/icons/default-icons/mystery-man.svg",
    "name": "Accompanist",
    "permission": {
        "default": 0
    },
    "type": "effect"
}
