{
    "_id": "WUMnFrehmFbj2PIm",
    "data": {
        "actionCategory": {
            "value": ""
        },
        "actionType": {
            "value": "passive"
        },
        "actions": {
            "value": ""
        },
        "description": {
            "value": "<p>You are familiar with weapons that excel underwater. You are trained with @Compendium[pf2e.equipment-srd.Crossbow]{Crossbows}, @Compendium[pf2e.equipment-srd.Hand Crossbow]{Hand Crossbows}, @Compendium[pf2e.equipment-srd.Longspear]{Longspears}, @Compendium[pf2e.equipment-srd.Spear]{Spears}, and @Compendium[pf2e.equipment-srd.Trident]{Tridents}.</p>\n<p>In addition, you gain access to all uncommon azarketi weapons. For the purpose of determining your proficiency, martial azarketi weapons are simple weapons and advanced azarketi weapons are martial weapons</p>"
        },
        "featType": {
            "value": "ancestry"
        },
        "level": {
            "value": 1
        },
        "location": "",
        "prerequisites": {
            "value": []
        },
        "rules": [],
        "source": {
            "value": ""
        },
        "traits": {
            "custom": "",
            "rarity": {
                "value": "common"
            },
            "value": [
                "azarketi"
            ]
        }
    },
    "effects": [
        {
            "_id": "sWynU7FfO9Z5dKxN",
            "changes": [
                {
                    "key": "data.martial.weapon-base-crossbow.rank",
                    "mode": 4,
                    "value": "1"
                },
                {
                    "key": "data.martial.weapon-base-hand-crossbow.rank",
                    "mode": 4,
                    "value": "1"
                },
                {
                    "key": "data.martial.weapon-base-longspear.rank",
                    "mode": 4,
                    "value": "1"
                },
                {
                    "key": "data.martial.weapon-base-spear.rank",
                    "mode": 4,
                    "value": "1"
                },
                {
                    "key": "data.martial.weapon-base-trident.rank",
                    "mode": 4,
                    "value": "1"
                },
                {
                    "key": "data.martial.martial.familiarity",
                    "mode": 5,
                    "value": "{ \"trait\": \"azarketi\", \"category\": \"advanced\" }"
                },
                {
                    "key": "data.martial.simple.familiarity",
                    "mode": 5,
                    "value": "{ \"trait\": \"azarketi\", \"category\": \"martial\" }"
                }
            ],
            "disabled": false,
            "duration": {
                "startTime": null
            },
            "flags": {},
            "icon": "systems/pf2e/icons/default-icons/feats.webp",
            "label": "Azarketi Weapon Familiarity",
            "origin": "",
            "tint": null,
            "transfer": true
        }
    ],
    "flags": {},
    "folder": null,
    "img": "systems/pf2e/icons/default-icons/feats.webp",
    "name": "Azarketi Weapon Familiarity",
    "permission": {
        "default": 0
    },
    "type": "feat"
}
