{
    "_id": "Ewk7h9aQpKvy1RJo",
    "data": {
        "actionCategory": {
            "value": ""
        },
        "actionType": {
            "value": "action"
        },
        "actions": {
            "value": "2"
        },
        "description": {
            "chat": "",
            "unidentified": "",
            "value": "<p><strong>Frequency</strong> once per day</p>\n<hr />\n<p>You’ve learned to disperse the crystalline motes coating your body as a haze. You become concealed, though you can’t use this concealment to Hide or Sneak, as normal for concealment where your position is still obvious. The motes stay within an inch of your skin, move with you, and last for a number of rounds equal to half your level.</p>"
        },
        "featType": {
            "value": "ancestry"
        },
        "level": {
            "value": 5
        },
        "location": "",
        "prerequisites": {
            "value": []
        },
        "rules": [],
        "source": {
            "value": ""
        },
        "traits": {
            "custom": "",
            "rarity": {
                "value": "common"
            },
            "value": [
                "aphorite"
            ]
        },
        "usage": {
            "value": ""
        }
    },
    "effects": [],
    "flags": {},
    "img": "systems/pf2e/icons/features/feats/feats.webp",
    "name": "Crystalline Dust",
    "permission": {
        "default": 0
    },
    "type": "feat"
}
