{
    "_id": "Vxs9btOk61C7KpP2",
    "data": {
        "actionCategory": {
            "value": ""
        },
        "actionType": {
            "value": "passive"
        },
        "actions": {
            "value": ""
        },
        "description": {
            "value": "<p>You’ve been approached with suspicion and distrust throughout your life and return these sentiments back to the strangers you encounter. As a result, you are difficult to deceive. You gain a +1 circumstance bonus to your Perception DC against Lies and Impersonations.</p>"
        },
        "featType": {
            "value": "ancestry"
        },
        "level": {
            "value": 1
        },
        "location": "",
        "prerequisites": {
            "value": []
        },
        "rules": [],
        "source": {
            "value": ""
        },
        "traits": {
            "custom": "",
            "rarity": {
                "value": "common"
            },
            "value": [
                "azarketi"
            ]
        }
    },
    "effects": [],
    "flags": {},
    "img": "systems/pf2e/icons/default-icons/feats.webp",
    "name": "Cynical",
    "permission": {
        "default": 0
    },
    "type": "feat"
}
