{
    "_id": "nBWoZ311FXFJC8Zl",
    "data": {
        "actionCategory": {
            "value": ""
        },
        "actionType": {
            "value": "reaction"
        },
        "actions": {
            "value": ""
        },
        "description": {
            "chat": "",
            "unidentified": "",
            "value": "<p><strong>Trigger</strong> You take damage from an area effect that allows a Reflex save.</p>\n<hr />\n<p>You dodge a blow at the last possible moment.</p>\n<p>You @Compendium[pf2e.actionspf2e.Step]{Step} and gain resistance to all damage equal to your level against the triggering effect. If your Step moves you out of the triggering effect's area, this resistance is instead equal to your level plus your Dexterity modifier.</p>"
        },
        "featType": {
            "value": "class"
        },
        "level": {
            "value": "12"
        },
        "prerequisites": {
            "value": [
                {
                    "value": "master in Acrobatics"
                }
            ]
        },
        "rules": [],
        "source": {
            "value": ""
        },
        "traits": {
            "custom": "",
            "rarity": {
                "value": "common"
            },
            "value": [
                "monk"
            ]
        }
    },
    "effects": [],
    "flags": {},
    "img": "systems/pf2e/icons/features/feats/feats.webp",
    "name": "Dodging Roll",
    "permission": {
        "default": 0
    },
    "type": "feat"
}
