{
    "_id": "HHAGiBYVv8nyUEsd",
    "data": {
        "actionCategory": {
            "value": ""
        },
        "actionType": {
            "value": "action"
        },
        "actions": {
            "value": "1"
        },
        "description": {
            "chat": "",
            "unidentified": "",
            "value": "<p><strong>Requirements</strong> You are wielding a one-handed melee weapon and have a free hand.</p>\n<hr />\n<p>You snap your free hand over to grip your weapon just long enough to add momentum and deliver a more powerful blow to your opponent.</p>\n<p>Make a Strike with the required weapon. You quickly switch your grip during the Strike in order to make the attack with two hands.</p>\n<p>If the weapon doesn't normally have the two-hand trait, increase its weapon damage die by one step for this attack. (Rules on increasing die size appear on page 279.) If the weapon has the two-hand trait, you gain the benefit of that trait and a circumstance bonus to damage equal to the weapon's number of damage dice.</p>\n<p>When the Strike is complete, you resume gripping the weapon with only one hand. This action doesn't end any stance or fighter feat effect that requires you to have one hand free.</p>"
        },
        "featType": {
            "value": "class"
        },
        "level": {
            "value": 4
        },
        "prerequisites": {
            "value": []
        },
        "rules": [],
        "source": {
            "value": ""
        },
        "traits": {
            "custom": "",
            "rarity": {
                "value": "common"
            },
            "value": [
                "fighter",
                "flourish"
            ]
        }
    },
    "effects": [],
    "flags": {},
    "img": "systems/pf2e/icons/features/feats/feats.webp",
    "name": "Dual-Handed Assault",
    "permission": {
        "default": 0
    },
    "type": "feat"
}
