{
    "_id": "EVNd9hZs49b1pScR",
    "data": {
        "actionCategory": {
            "value": ""
        },
        "actionType": {
            "value": "passive"
        },
        "actions": {
            "value": ""
        },
        "description": {
            "chat": "",
            "unidentified": "",
            "value": "<p>When you lash out with both weapons, you leave no room for the target to escape your attack.</p>\n<p>When you use @Compendium[pf2e.feats-srd.Double Slice]{Double Slice}, if you miss with both @Compendium[pf2e.actionspf2e.Strike]{Strikes}, choose one of the two weapons and apply the effects of a hit with that weapon.</p>\n<p>You can't choose a weapon if your attack roll with that weapon was a critical failure, meaning you still miss entirely if both attack rolls were critical failures.</p>"
        },
        "featType": {
            "value": "archetype"
        },
        "level": {
            "value": "14"
        },
        "prerequisites": {
            "value": [
                {
                    "value": "Dual-Weapon Dedication"
                }
            ]
        },
        "rules": [],
        "source": {
            "value": ""
        },
        "traits": {
            "custom": "",
            "rarity": {
                "value": "common"
            },
            "value": [
                "archetype"
            ]
        }
    },
    "effects": [],
    "flags": {},
    "img": "systems/pf2e/icons/features/feats/feats.webp",
    "name": "Dual Onslaught",
    "permission": {
        "default": 0
    },
    "type": "feat"
}
