{
    "_id": "7HPXQvPH3ovwtVae",
    "data": {
        "actionCategory": {
            "value": ""
        },
        "actionType": {
            "value": "action"
        },
        "actions": {
            "value": "1"
        },
        "description": {
            "chat": "",
            "unidentified": "",
            "value": "<p><strong>Requirements</strong> Your last action was a successful Strike, and either you have a hand free or your Strike used a grapple weapon.</p>\n<hr />\n<p>You grab your foe while it's distracted by your attack. The foe you hit becomes grabbed, as if you had succeeded at an Athletics check to Grapple the foe.</p>"
        },
        "featType": {
            "value": "class"
        },
        "level": {
            "value": 12
        },
        "prerequisites": {
            "value": []
        },
        "rules": [],
        "source": {
            "value": ""
        },
        "traits": {
            "custom": "",
            "rarity": {
                "value": "common"
            },
            "value": [
                "rage",
                "barbarian"
            ]
        }
    },
    "effects": [],
    "flags": {},
    "img": "systems/pf2e/icons/features/feats/feats.webp",
    "name": "Furious Grab",
    "permission": {
        "default": 0
    },
    "type": "feat"
}
