{
    "_id": "2kwLzw618QaIHOap",
    "data": {
        "actionCategory": {
            "value": ""
        },
        "actionType": {
            "value": "passive"
        },
        "actions": {
            "value": ""
        },
        "description": {
            "chat": "",
            "unidentified": "",
            "value": "<p>Whenever you critically hit using a @Compendium[pf2e.equipment-srd.Falchion]{Falchion}, @Compendium[pf2e.equipment-srd.Ranseur]{Ranseur}, @Compendium[pf2e.equipment-srd.Scimitar]{Scimitar}, @Compendium[pf2e.equipment-srd.Trident]{Trident}, or a geniekin weapon, you apply the weapon’s critical specialization effect.</p>"
        },
        "featType": {
            "value": "ancestry"
        },
        "level": {
            "value": 5
        },
        "location": "",
        "prerequisites": {
            "value": [
                {
                    "value": "Genie Weapon Familiarity"
                }
            ]
        },
        "rules": [],
        "source": {
            "value": ""
        },
        "traits": {
            "custom": "",
            "rarity": {
                "value": "common"
            },
            "value": [
                "ifrit",
                "oread",
                "suli",
                "sylph",
                "undine"
            ]
        },
        "usage": {
            "value": ""
        }
    },
    "effects": [],
    "flags": {},
    "img": "systems/pf2e/icons/features/feats/feats.webp",
    "name": "Genie Weapon Flourish",
    "permission": {
        "default": 0
    },
    "type": "feat"
}
