{
    "_id": "rFaUJtB46scuAidY",
    "data": {
        "actionCategory": {
            "value": ""
        },
        "actionType": {
            "value": "action"
        },
        "actions": {
            "value": "1"
        },
        "description": {
            "chat": "",
            "unidentified": "",
            "value": "<p>With the right positioning, your off-hand weapon can strike like a scorpion's stinger.</p>\n<p>While you are in this stance, if you make your second Strike from @Compendium[pf2e.feats-srd.Double Slice]{Double Slice} with an agile weapon, Double Slice counts as one attack when calculating your multiple attack penalty.</p>"
        },
        "featType": {
            "value": "class"
        },
        "level": {
            "value": 16
        },
        "prerequisites": {
            "value": [
                {
                    "value": "Double Slice"
                }
            ]
        },
        "rules": [],
        "source": {
            "value": ""
        },
        "traits": {
            "custom": "",
            "rarity": {
                "value": "common"
            },
            "value": [
                "fighter",
                "stance"
            ]
        }
    },
    "effects": [],
    "flags": {},
    "img": "systems/pf2e/icons/features/feats/feats.webp",
    "name": "Graceful Poise",
    "permission": {
        "default": 0
    },
    "type": "feat"
}
