{
    "_id": "Dwxi1q1OWB1ufFvy",
    "data": {
        "actionCategory": {
            "value": ""
        },
        "actionType": {
            "value": "action"
        },
        "actions": {
            "value": "1"
        },
        "description": {
            "chat": "",
            "unidentified": "",
            "value": "<p>You control your breathing and align it with your ki, exhaling with controlled force in order to overcome your opponent's resistance.</p>\n<p>If you use your next action to Cast a Spell that has the monk trait and no duration, the spell and any Strike} you make as a result of casting it ignore an amount of the target's resistance to physical damage equal to your level.</p>"
        },
        "featType": {
            "value": "class"
        },
        "level": {
            "value": 12
        },
        "location": "",
        "prerequisites": {
            "value": [
                {
                    "value": "ki spells"
                }
            ]
        },
        "rules": [],
        "source": {
            "value": ""
        },
        "traits": {
            "custom": "",
            "rarity": {
                "value": "common"
            },
            "value": [
                "concentrate",
                "metamagic",
                "monk"
            ]
        }
    },
    "effects": [],
    "flags": {},
    "img": "systems/pf2e/icons/features/feats/feats.webp",
    "name": "Overwhelming Breath",
    "permission": {
        "default": 0
    },
    "type": "feat"
}
