{
    "_id": "Y8c8hAyjNAiqgxAO",
    "data": {
        "actionCategory": {
            "value": ""
        },
        "actionType": {
            "value": "passive"
        },
        "actions": {
            "value": ""
        },
        "description": {
            "value": "<p>You’ve learned special tricks to survive underwater. You gain the trained proficiency rank in Survival. When in an aquatic environment, if you roll a critical failure on a Survival skill check to Sense Direction or Subsist, you get a failure instead.</p>"
        },
        "featType": {
            "value": "ancestry"
        },
        "level": {
            "value": 1
        },
        "location": "",
        "prerequisites": {
            "value": []
        },
        "rules": [],
        "source": {
            "value": ""
        },
        "traits": {
            "custom": "",
            "rarity": {
                "value": "common"
            },
            "value": [
                "azarketi"
            ]
        }
    },
    "effects": [],
    "flags": {},
    "img": "systems/pf2e/icons/default-icons/feats.webp",
    "name": "Pelagic Aptitude",
    "permission": {
        "default": 0
    },
    "type": "feat"
}
