{
    "_id": "RnxullWsNdbU7fuH",
    "data": {
        "actionCategory": {
            "value": ""
        },
        "actionType": {
            "value": "action"
        },
        "actions": {
            "value": "2"
        },
        "description": {
            "chat": "",
            "unidentified": "",
            "value": "<p><strong>Archetype</strong> @Compendium[pf2e.archetypes.Staff Acrobat]{Staff Acrobat}<br /><strong>Requirements</strong> You are wielding your staff.</p>\n<hr />\n<p>You @Compendium[pf2e.actionspf2e.Leap]{Leap} and then Strike using your staff. You gain a circumstance bonus to damage for the Strike equal to twice the number of weapon damage dice. Regardless of whether your Strike hit, you can then attempt to @Compendium[pf2e.actionspf2e.Shove]{Shove} or @Compendium[pf2e.actionspf2e.Trip]{Trip} the target.</p>"
        },
        "featType": {
            "value": "archetype"
        },
        "level": {
            "value": "14"
        },
        "prerequisites": {
            "value": [
                {
                    "value": "Staff Acrobat Dedication"
                }
            ]
        },
        "rules": [],
        "source": {
            "value": ""
        },
        "traits": {
            "custom": "",
            "rarity": {
                "value": "uncommon"
            },
            "value": [
                "archetype",
                "attack",
                "open"
            ]
        }
    },
    "effects": [],
    "flags": {},
    "img": "systems/pf2e/icons/features/feats/feats.webp",
    "name": "Pivot Strike",
    "permission": {
        "default": 0
    },
    "type": "feat"
}
