{
    "_id": "HLC9g1pwluDl6vy7",
    "data": {
        "actionCategory": {
            "value": ""
        },
        "actionType": {
            "value": "passive"
        },
        "actions": {
            "value": ""
        },
        "description": {
            "chat": "",
            "unidentified": "",
            "value": "<p>You spend 10 minutes and open yourself to the divine mysteries of the world, peering into the most sinister portents of the future.</p>\n<p>You gain the effects of @Compendium[pf2e.spells-srd.Augury]{Augury}, except you learn only about the dangers ahead; any results of \"weal\" are instead \"nothing,\" and results of \"weal and woe\" are instead \"woe.\" If you are legendary in Religion, you take only 1 minute to Read Disaster.</p>"
        },
        "featType": {
            "value": "class"
        },
        "level": {
            "value": "8"
        },
        "prerequisites": {
            "value": []
        },
        "rules": [],
        "source": {
            "value": ""
        },
        "traits": {
            "custom": "",
            "rarity": {
                "value": "common"
            },
            "value": [
                "divination",
                "exploration",
                "oracle",
                "prediction"
            ]
        }
    },
    "effects": [],
    "flags": {},
    "img": "systems/pf2e/icons/features/feats/feats.webp",
    "name": "Read Disaster",
    "permission": {
        "default": 0
    },
    "type": "feat"
}
