{
    "_id": "uxHWqFbYD0ZvkeF8",
    "data": {
        "actionCategory": {
            "value": ""
        },
        "actionType": {
            "value": "passive"
        },
        "actions": {
            "value": ""
        },
        "description": {
            "chat": "",
            "unidentified": "",
            "value": "<p>You've studied scrolls in depth. This might have been a comprehensive education in formal setting, or the sort of education where you somehow obtain a number of scrolls and try not to explode anything you didn't mean to explode.</p>\n<p>You gain the @Compendium[pf2e.feats-srd.Trick Magic Item]{Trick Magic Item} feat, and you gain a +2 circumstance bonus to skill checks to Trick scrolls. If you roll a critical failure to Trick a Magic Item that's a scroll, you get a failure instead.</p>\n<p><strong>Special</strong> You can't select another dedication feat until you have gained two other feats from the scroll trickster archetype.</p>"
        },
        "featType": {
            "value": "archetype"
        },
        "level": {
            "value": "2"
        },
        "prerequisites": {
            "value": [
                {
                    "value": "trained in Arcana, Nature, Occultism, or Religion"
                }
            ]
        },
        "rules": [],
        "source": {
            "value": ""
        },
        "traits": {
            "custom": "",
            "rarity": {
                "value": "common"
            },
            "value": [
                "archetype",
                "dedication"
            ]
        }
    },
    "effects": [],
    "flags": {},
    "img": "systems/pf2e/icons/features/feats/feats.webp",
    "name": "Scroll Trickster Dedication",
    "permission": {
        "default": 0
    },
    "type": "feat"
}
