{
    "_id": "zytTsipimVTmPc5U",
    "data": {
        "actionCategory": {
            "value": ""
        },
        "actionType": {
            "value": "passive"
        },
        "actions": {
            "value": ""
        },
        "description": {
            "chat": "",
            "unidentified": "",
            "value": "<p>You protect those near you with a flash of steel. When you're benefiting from Dueling Parry, allies adjacent to you gain a +1 circumstance bonus to AC.</p>\n<p>If you have @Compendium[pf2e.feats-srd.Dueling Riposte]{Dueling Riposte}, you can use it when an enemy within your reach critically fails a @Compendium[pf2e.actionspf2e.Strike]{Strike} against an ally adjacent to you, not just against yourself.</p>"
        },
        "featType": {
            "value": "archetype"
        },
        "level": {
            "value": 8
        },
        "prerequisites": {
            "value": [
                {
                    "value": "Dueling Parry"
                },
                {
                    "value": "Duelist Dedication"
                }
            ]
        },
        "rules": [],
        "source": {
            "value": ""
        },
        "traits": {
            "custom": "",
            "rarity": {
                "value": "common"
            },
            "value": [
                "archetype"
            ]
        }
    },
    "effects": [],
    "flags": {},
    "img": "systems/pf2e/icons/features/feats/feats.webp",
    "name": "Selfless Parry",
    "permission": {
        "default": 0
    },
    "type": "feat"
}
