{
    "_id": "8bMmGBO6gsMfWZk3",
    "data": {
        "actionCategory": {
            "value": ""
        },
        "actionType": {
            "value": "passive"
        },
        "actions": {
            "value": ""
        },
        "description": {
            "chat": "",
            "unidentified": "",
            "value": "<p>The focused power of your flurry threatens to overwhelm your opponent. When you target the same creature with two Strikes from your @Compendium[pf2e.actionspf2e.Flurry of Blows]{Flurry of Blows}, you can try to stun the creature. If either Strike hits and deals damage, the target must succeed at a Fortitude save against your class DC or be @Compendium[pf2e.conditionitems.Stunned]{Stunned 1} (or @Compendium[pf2e.conditionitems.Stunned]{Stunned 3} on a critical failure). This is an incapacitation effect.</p>"
        },
        "featType": {
            "value": "class"
        },
        "level": {
            "value": 2
        },
        "prerequisites": {
            "value": [
                {
                    "value": "Flurry of Blows"
                }
            ]
        },
        "rules": [],
        "source": {
            "value": ""
        },
        "traits": {
            "custom": "",
            "rarity": {
                "value": "common"
            },
            "value": [
                "monk"
            ]
        }
    },
    "effects": [],
    "flags": {},
    "img": "systems/pf2e/icons/features/feats/feats.webp",
    "name": "Stunning Fist",
    "permission": {
        "default": 0
    },
    "type": "feat"
}
