{
    "_id": "Xdmz09kzLjIxWz9C",
    "data": {
        "actionCategory": {
            "value": ""
        },
        "actionType": {
            "value": "passive"
        },
        "actions": {
            "value": ""
        },
        "description": {
            "chat": "",
            "unidentified": "",
            "value": "<p>You learn new debilitations that grant you tactical advantages against your foes. Add the following debilitations to the list you can choose from when you use @Compendium[pf2e.actionspf2e.Debilitating Strike]{Debilitating Strike}.</p>\n<ul>\n<li><strong>Debilitation</strong> The target can't use reactions.</li>\n<li><strong>Debilitation</strong> The target can't flank or contribute to allies' flanking.</li>\n</ul>"
        },
        "featType": {
            "value": "class"
        },
        "level": {
            "value": 10
        },
        "location": "",
        "prerequisites": {
            "value": [
                {
                    "value": "scoundrel racket"
                },
                {
                    "value": "Debilitating Strike"
                }
            ]
        },
        "rules": [
            {
                "key": "PF2E.RuleElement.Note",
                "predicate": {
                    "all": [
                        "target:flatFooted"
                    ]
                },
                "selector": "damage",
                "text": "<span class='pf2-icon'>f</span> @Compendium[pf2e.feats-srd.Tactical Debilitations]{Tactical Debilitations}"
            }
        ],
        "source": {
            "value": ""
        },
        "traits": {
            "custom": "",
            "rarity": {
                "value": "common"
            },
            "value": [
                "rogue"
            ]
        }
    },
    "effects": [],
    "flags": {},
    "folder": null,
    "img": "systems/pf2e/icons/features/feats/feats.webp",
    "name": "Tactical Debilitations",
    "permission": {
        "default": 0
    },
    "type": "feat"
}
