{
    "_id": "chM3Pya6H8QGnEGo",
    "data": {
        "actionCategory": {
            "value": ""
        },
        "actionType": {
            "value": "passive"
        },
        "actions": {
            "value": ""
        },
        "description": {
            "value": "<p>You glide through the water with graceful ease. When in an aquatic or swamp environment, you ignore the effects of non-magical difficult terrain. In addition, swimming up or down isn’t difficult terrain for you.</p>"
        },
        "featType": {
            "value": "ancestry"
        },
        "level": {
            "value": 9
        },
        "location": "",
        "prerequisites": {
            "value": []
        },
        "rules": [],
        "source": {
            "value": ""
        },
        "traits": {
            "custom": "",
            "rarity": {
                "value": "common"
            },
            "value": [
                "azarketi"
            ]
        }
    },
    "effects": [],
    "flags": {},
    "img": "systems/pf2e/icons/default-icons/feats.webp",
    "name": "Water Dancer",
    "permission": {
        "default": 0
    },
    "type": "feat"
}
