{
    "_id": "wlBiDpWvjKiw9k2z",
    "data": {
        "actionCategory": {
            "value": ""
        },
        "actionType": {
            "value": "passive"
        },
        "actions": {
            "value": ""
        },
        "description": {
            "chat": "",
            "unidentified": "",
            "value": "<p><strong>Minor Boon (Single-Use)</strong>: The Midnight Lord turns your blood and pain into chains of midnight darkness to destroy your foes.</p>\n<p>Once, for 1 minute, whenever you take slashing, piercing, or bleed damage, chains rip forth from your body, affecting creatures in a line from your position in the direction of the attack (or in the direction of your choice for bleed damage or if you deal the damage yourself) with the effect of a @Compendium[pf2e.spells-srd.Grim Tendrils]{Grim Tendrils} spell whose level is equal to half your level rounded up, and whose DC is your highest spell DC (or 10 + your level + your Wisdom modifier if you have no spell DC).</p>"
        },
        "featType": {
            "value": "deityboon"
        },
        "level": {
            "value": "0"
        },
        "prerequisites": {
            "value": []
        },
        "rules": [],
        "source": {
            "value": ""
        },
        "traits": {
            "custom": "",
            "rarity": {
                "value": "common"
            },
            "selected": {},
            "value": []
        }
    },
    "effects": [],
    "flags": {},
    "img": "systems/pf2e/icons/deity/Zon-Kuthon.webp",
    "name": "Zon-Kuthon - Minor Boon",
    "permission": {
        "default": 0
    },
    "type": "feat"
}
