{
    "_id": "13QpCrR8a8XULbJa",
    "data": {
        "actionCategory": {
            "value": ""
        },
        "actionType": {
            "value": "passive"
        },
        "actions": {
            "value": ""
        },
        "description": {
            "chat": "",
            "unidentified": "",
            "value": "<p>While not equal to the heights of your panache in combat, you have a dramatic flair about you in any situation.</p>\n<p>Whenever you succeed at a check during exploration that would have granted you panache in combat, you gain a +1 circumstance bonus to further checks for actions that would grant you panache in combat. This benefit ends when the exploration changes to a different scene (as determined by the GM) or shifts to an encounter or downtime.</p>"
        },
        "featType": {
            "value": "classfeature"
        },
        "level": {
            "value": "11"
        },
        "prerequisites": {
            "value": []
        },
        "rules": [],
        "source": {
            "value": ""
        },
        "traits": {
            "custom": "",
            "rarity": {
                "value": "common"
            },
            "value": [
                "swashbuckler"
            ]
        }
    },
    "effects": [],
    "flags": {},
    "img": "systems/pf2e/icons/features/classes/continuous-flair.webp",
    "name": "Continuous Flair",
    "permission": {
        "default": 0
    },
    "type": "feat"
}
