{
    "_id": "ZyREiMaul0VhDYh3",
    "data": {
        "ability": {
            "value": ""
        },
        "area": {
            "value": ""
        },
        "areasize": {
            "value": ""
        },
        "category": {
            "value": "focus"
        },
        "components": {
            "value": "somatic, verbal"
        },
        "cost": {
            "value": ""
        },
        "damage": {
            "applyMod": false,
            "value": "10d6"
        },
        "damageType": {
            "value": "cold"
        },
        "description": {
            "chat": "",
            "unidentified": "",
            "value": "<p>Ice and bone-deep cold assail the target, freezing it from the inside out. The frosty assault deals 10d6 cold damage, subject to the target's Fortitude save. After the effects are resolved, the target is temporarily immune for 1 day.</p>\n<hr />\n<p><strong>Critical Success</strong> The target is unaffected.</p>\n<p><strong>Success</strong> The target takes half damage and is slowed 1 for 1 round. The spell ends.</p>\n<p><strong>Failure</strong> The target takes full damage, is @Compendium[pf2e.conditionitems.Slowed]{Slowed 1}, and must attempt a Fortitude save at the end of each of its turns; this ongoing save has the incapacitation trait. On a failed save, the slowed condition increases by 1 (or 2 on a critical failure), to a maximum of slowed 4. On a success, the slowed condition decreases by 1. If at any point the slowed condition is reduced to 0, the spell ends.</p>\n<p>Once a creature's actions are reduced to 0 by this slowed condition, the creature is completely encased in ice. It continues making saves against glacial heart, possibly allowing it to reduce its slowed condition enough that it can act. This ice has Hardness 4 and 8 Hit Points, and its DC to Force Open is your spell DC. Breaking the ice frees the creature and ends the spell. If someone other than the target breaks the ice from outside, the target is @Compendium[pf2e.conditionitems.Stunned]{Stunned 1} and takes any damage dealt by the breaking effect in excess of the ice's Hit Points.</p>\n<p><strong>Critical Failure</strong> As failure, but the target takes double damage and is initially @Compendium[pf2e.conditionitems.Slowed]{Slowed 2}.</p>\n<hr />\n<p><strong>Heightened (+1)</strong> Increase the cold damage by 2d6.</p>"
        },
        "duration": {
            "value": "1 minute"
        },
        "hasCounteractCheck": {
            "value": false
        },
        "level": {
            "value": 5
        },
        "location": {
            "value": "jmHS1JFMlQxpUHus"
        },
        "materials": {
            "value": ""
        },
        "prepared": {
            "value": ""
        },
        "primarycheck": {
            "value": ""
        },
        "range": {
            "value": "30 feet"
        },
        "rules": [],
        "save": {
            "basic": "",
            "value": "fortitude"
        },
        "scaling": {
            "formula": "2d6",
            "mode": "level1"
        },
        "school": {
            "value": "evocation"
        },
        "secondarycasters": {
            "value": ""
        },
        "secondarycheck": {
            "value": ""
        },
        "source": {
            "value": ""
        },
        "spellType": {
            "value": "utility"
        },
        "sustained": {
            "value": false
        },
        "target": {
            "value": "1 creature"
        },
        "time": {
            "value": "2"
        },
        "traditions": {
            "value": []
        },
        "traits": {
            "custom": "",
            "rarity": {
                "value": "rare"
            },
            "selected": {
                "hex": "Hex",
                "witch": "Witch"
            },
            "value": [
                "hex",
                "witch"
            ]
        }
    },
    "effects": [],
    "flags": {},
    "img": "systems/pf2e/icons/spells/glacial-heart.webp",
    "name": "Glacial Heart",
    "permission": {
        "default": 0
    },
    "type": "spell"
}
