{
    "_id": "qzsQmpiQodHBBWYI",
    "data": {
        "ability": {
            "value": ""
        },
        "area": {
            "areaType": "",
            "value": null
        },
        "areasize": {
            "value": ""
        },
        "category": {
            "value": "focus"
        },
        "components": {
            "value": "somatic, verbal"
        },
        "cost": {
            "value": ""
        },
        "damage": {
            "applyMod": false,
            "value": ""
        },
        "damageType": {
            "value": ""
        },
        "description": {
            "chat": "",
            "unidentified": "",
            "value": "<p>You embed a seed of negative energy in an undead creature, restoring its unnatural vigor. The target gains fast healing 7. This healing comes from negative energy, so it heals the undead rather than damaging it.</p>\n<hr />\n<p><strong>Heightened (+1)</strong> The fast healing increases by 2.</p>"
        },
        "duration": {
            "value": "1 minute"
        },
        "hasCounteractCheck": {
            "value": false
        },
        "level": {
            "value": 4
        },
        "location": {
            "value": ""
        },
        "materials": {
            "value": ""
        },
        "prepared": {
            "value": ""
        },
        "primarycheck": {
            "value": ""
        },
        "range": {
            "value": "touch"
        },
        "rules": [],
        "save": {
            "basic": "",
            "value": ""
        },
        "scaling": {
            "formula": "",
            "mode": "none"
        },
        "school": {
            "value": "necromancy"
        },
        "secondarycasters": {
            "value": ""
        },
        "secondarycheck": {
            "value": ""
        },
        "source": {
            "value": ""
        },
        "spellType": {
            "value": "utility"
        },
        "sustained": {
            "value": false
        },
        "target": {
            "value": "1 willing undead creature"
        },
        "time": {
            "value": "2"
        },
        "traditions": {
            "value": []
        },
        "traits": {
            "custom": "",
            "rarity": {
                "value": "uncommon"
            },
            "value": [
                "cleric",
                "necromancy",
                "negative"
            ]
        }
    },
    "effects": [],
    "flags": {},
    "img": "systems/pf2e/icons/spells/malignant-sustenance.webp",
    "name": "Malignant Sustenance",
    "permission": {
        "default": 0
    },
    "type": "spell"
}
