{
    "_id": "gIdDLrbswTV3OBJy",
    "data": {
        "ability": {
            "value": ""
        },
        "area": {
            "areaType": "",
            "value": null
        },
        "areasize": {
            "value": ""
        },
        "category": {
            "value": "spell"
        },
        "components": {
            "value": "material, somatic"
        },
        "cost": {
            "value": ""
        },
        "damage": {
            "applyMod": false,
            "value": ""
        },
        "damageType": {
            "value": ""
        },
        "description": {
            "chat": "",
            "unidentified": "",
            "value": "<p>The target makes no sound, preventing creatures from noticing it using hearing or other senses alone. The target can't use sonic attacks, nor can it use actions with the auditory trait. This prevents it from casting spells that include verbal components.</p>\n<hr />\n<p><strong>Heightened (4th)</strong> The spell effect emanates from the touched creature, silencing all sound in or passing through a 10- foot radius and preventing any auditory and sonic effects in the affected area. While within the radius, creatures are subject to the same effects as the target. Depending upon the position of the effect, a creature might notice the lack of sound reaching it (blocking off the noise coming from a party, for example).</p>"
        },
        "duration": {
            "value": "1 minute"
        },
        "hasCounteractCheck": {
            "value": false
        },
        "level": {
            "value": 2
        },
        "location": {
            "value": ""
        },
        "materials": {
            "value": ""
        },
        "prepared": {
            "value": ""
        },
        "primarycheck": {
            "value": ""
        },
        "range": {
            "value": "touch"
        },
        "rules": [],
        "save": {
            "basic": "",
            "value": ""
        },
        "scaling": {
            "formula": "",
            "mode": "none"
        },
        "school": {
            "value": "illusion"
        },
        "secondarycasters": {
            "value": ""
        },
        "secondarycheck": {
            "value": ""
        },
        "source": {
            "value": ""
        },
        "spellType": {
            "value": "utility"
        },
        "sustained": {
            "value": false
        },
        "target": {
            "value": "1 willing creature"
        },
        "time": {
            "value": "2"
        },
        "traditions": {
            "value": [
                "divine",
                "occult"
            ]
        },
        "traits": {
            "custom": "",
            "rarity": {
                "value": "common"
            },
            "value": [
                "illusion"
            ]
        }
    },
    "effects": [],
    "flags": {},
    "img": "systems/pf2e/icons/spells/silence.webp",
    "name": "Silence",
    "permission": {
        "default": 0
    },
    "type": "spell"
}
