{
    "_id": "a3aQxCpoj1q1NQxC",
    "data": {
        "ability": {
            "value": ""
        },
        "area": {
            "areaType": "burst",
            "value": 60
        },
        "areasize": {
            "value": "60-foot burst"
        },
        "category": {
            "value": "spell"
        },
        "components": {
            "value": "somatic, verbal"
        },
        "cost": {
            "value": ""
        },
        "damage": {
            "applyMod": false,
            "value": "8d10"
        },
        "damageType": {
            "value": "fire"
        },
        "description": {
            "chat": "",
            "unidentified": "",
            "value": "<p>A powerful globe of searing sunlight explodes in the area, dealing 8d10 fire damage to all creatures in the area, plus 8d10 additional positive damage to undead creatures. Each creature and object in the area must attempt a Reflex save. If the globe overlaps with an area of magical darkness, sunburst attempts to counteract the darkness effect.</p>\n<hr />\n<p><strong>Critical Success</strong> The creature or object is unaffected.</p>\n<p><strong>Success</strong> The creature takes half damage.</p>\n<p><strong>Failure</strong> The creature takes full damage.</p>\n<p><strong>Critical Failure</strong> The creature takes full damage. If it's a creature, it becomes @Compendium[pf2e.conditionitems.Blinded]{Blinded} permanently.</p>\n<hr />\n<p><strong>Heightened (+1)</strong> The fire damage increases by 1d10, and the positive damage against undead increases by 1d10.</p>"
        },
        "duration": {
            "value": ""
        },
        "hasCounteractCheck": {
            "value": true
        },
        "level": {
            "value": 7
        },
        "location": {
            "value": ""
        },
        "materials": {
            "value": ""
        },
        "prepared": {
            "value": ""
        },
        "primarycheck": {
            "value": ""
        },
        "range": {
            "value": "500 feet"
        },
        "rules": [],
        "save": {
            "basic": "",
            "value": "reflex"
        },
        "scaling": {
            "formula": "1d10",
            "mode": "level1"
        },
        "school": {
            "value": "evocation"
        },
        "secondarycasters": {
            "value": ""
        },
        "secondarycheck": {
            "value": ""
        },
        "source": {
            "value": ""
        },
        "spellType": {
            "value": "save"
        },
        "sustained": {
            "value": false
        },
        "target": {
            "value": ""
        },
        "time": {
            "value": "2"
        },
        "traditions": {
            "value": [
                "divine",
                "primal"
            ]
        },
        "traits": {
            "custom": "",
            "rarity": {
                "value": "common"
            },
            "value": [
                "evocation",
                "fire",
                "light",
                "positive"
            ]
        }
    },
    "effects": [],
    "flags": {},
    "img": "systems/pf2e/icons/spells/sunburst.webp",
    "name": "Sunburst",
    "permission": {
        "default": 0
    },
    "type": "spell"
}
