{
    "_id": "LFSwMtQVP05EzlZe",
    "data": {
        "ability": {
            "value": ""
        },
        "area": {
            "areaType": "",
            "value": ""
        },
        "areasize": {
            "value": "20-foot burst"
        },
        "category": {
            "value": "focus"
        },
        "components": {
            "value": "somatic, verbal"
        },
        "cost": {
            "value": ""
        },
        "damage": {
            "applyMod": false,
            "value": "2d6"
        },
        "damageType": {
            "value": "bludgeoning"
        },
        "description": {
            "chat": "",
            "unidentified": "",
            "value": "<p>You create a powerful blast of air and a loud peal of thunder, dealing 2d6 bludgeoning damage and 2d6 sonic damage. Each creature in the area must attempt a Fortitude save.</p>\n<hr />\n<p><strong>Critical Success</strong> The creature is unaffected<strong>.</strong></p>\n<p><strong>Success</strong> The creature takes half damage.</p>\n<p><strong>Failure</strong> The creature takes full damage and is @Compendium[pf2e.conditionitems.Deafened]{Deafened} for 1 minute.</p>\n<p><strong>Critical Failure</strong> The creature takes double damage and is<br />Deafened for 1 hour.</p>\n<hr />\n<p><strong>Heightened (+2)</strong> Increase each type of damage by 2d6 and the area by 5 feet.</p>"
        },
        "duration": {
            "value": ""
        },
        "hasCounteractCheck": {
            "value": false
        },
        "level": {
            "value": 3
        },
        "location": {
            "value": ""
        },
        "materials": {
            "value": ""
        },
        "prepared": {
            "value": ""
        },
        "primarycheck": {
            "value": ""
        },
        "range": {
            "value": "100 feet"
        },
        "rules": [],
        "save": {
            "basic": "",
            "value": "fortitude"
        },
        "scaling": {
            "formula": "2d6",
            "mode": "level2"
        },
        "school": {
            "value": "evocation"
        },
        "secondarycasters": {
            "value": ""
        },
        "secondarycheck": {
            "value": ""
        },
        "source": {
            "value": ""
        },
        "spellType": {
            "value": "save"
        },
        "sustained": {
            "value": false
        },
        "target": {
            "value": ""
        },
        "time": {
            "value": "2"
        },
        "traditions": {
            "custom": "",
            "value": []
        },
        "traits": {
            "custom": "",
            "rarity": {
                "value": "uncommon"
            },
            "value": [
                "air",
                "evocation",
                "oracle",
                "sonic"
            ]
        }
    },
    "effects": [],
    "flags": {},
    "img": "systems/pf2e/icons/spells/thunderburst.webp",
    "name": "Thunderburst",
    "permission": {
        "default": 0
    },
    "type": "spell"
}
