{
    "_id": "TDc9MXLXkgEFoKdD",
    "data": {
        "actionCategory": {
            "value": ""
        },
        "actionType": {
            "value": "passive"
        },
        "actions": {
            "value": ""
        },
        "description": {
            "value": "<p>You’ve inherited flexibility beyond that of most humanoids. You don’t treat tight spaces that don’t require you to Squeeze as difficult terrain. In addition, you get a +1 circumstance bonus to checks when you attempt to Escape.</p>"
        },
        "featType": {
            "value": "heritage"
        },
        "level": {
            "value": 1
        },
        "location": "",
        "prerequisites": {
            "value": []
        },
        "rules": [],
        "source": {
            "value": ""
        },
        "traits": {
            "custom": "",
            "rarity": {
                "value": "common"
            },
            "value": [
                "catfolk"
            ]
        }
    },
    "effects": [],
    "flags": {},
    "img": "systems/pf2e/icons/default-icons/feat.svg",
    "name": "Flexible Catfolk",
    "permission": {
        "default": 0
    },
    "type": "feat"
}
