{
    "_id": "NMmsJyeMTawpgLVR",
    "data": {
        "description": {
            "value": "<p>Granted by @Compendium[pf2e.feats-srd.Resounding Bravery]{Resounding Bravery} if you critically succeed at a Will save against a foe's ability.</p>\n<p>You gain a +1 status bonus to saves and a number of temporary Hit Points equal to half your level for 1 minute.</p>"
        },
        "duration": {
            "expiry": "turn-start",
            "sustained": false,
            "unit": "minutes",
            "value": 1
        },
        "level": {
            "value": 8
        },
        "rules": [
            {
                "key": "PF2E.RuleElement.FlatModifier",
                "label": "Resounding Bravery",
                "selector": "saving-throw",
                "type": "status",
                "value": 1
            },
            {
                "key": "PF2E.RuleElement.TokenEffectIcon"
            },
            {
                "key": "PF2E.RuleElement.TempHP",
                "value": "round(@details.level.value / 2)"
            }
        ],
        "source": {
            "value": ""
        },
        "start": {
            "initiative": null,
            "value": 0
        },
        "target": null,
        "traits": {
            "custom": "",
            "rarity": {
                "value": "common"
            },
            "value": []
        }
    },
    "effects": [],
    "flags": {},
    "img": "systems/pf2e/icons/spells/dimensional-anchor.webp",
    "name": "Effect: Resounding Bravery",
    "permission": {
        "default": 0
    },
    "type": "effect"
}
