{
    "_id": "sDftJWPPSUeSZD3A",
    "data": {
        "description": {
            "value": "<p>Granted by @Compendium[pf2e.feats-srd.Favored Terrain]{Favored Terrain (Forest, Moutain or Underground)} if you have the @Compendium[pf2e.classfeatures.Wild Stride]{Wild Stride} class feature, and are in forested, mountainous or underground terrain and do not already have a climb Speed.</p>\n<p>You gain a climb Speed equal to your Speed.</p>"
        },
        "duration": {
            "expiry": "turn-start",
            "sustained": false,
            "unit": "unlimited",
            "value": -1
        },
        "level": {
            "value": 11
        },
        "rules": [
            {
                "key": "PF2E.RuleElement.BaseSpeed",
                "selector": "climb",
                "value": "@attributes.speed.value"
            }
        ],
        "source": {
            "value": ""
        },
        "start": {
            "initiative": null,
            "value": 0
        },
        "target": null,
        "tokenIcon": {
            "show": false
        },
        "traits": {
            "custom": "",
            "rarity": {
                "value": "common"
            },
            "value": []
        }
    },
    "effects": [],
    "flags": {},
    "img": "systems/pf2e/icons/default-icons/feats.webp",
    "name": "Favored Terrain (Gain Climb Speed)",
    "permission": {
        "default": 0
    },
    "type": "effect"
}
