{
    "_id": "vjvcccAwdkOLA1Fc",
    "data": {
        "description": {
            "chat": "",
            "unidentified": "",
            "value": "<p>Granted by @Compendium[pf2e.feats-srd.Peafowl Stance]{Peafowl Stance}</p>\n<p>You enter a tall and proud stance while remaining mobile, with all the grace and composure of a peafowl.</p>\n<p>While in this stance, the only Strikes you can make are melee Strikes with the required sword. Once per round, after you hit with a monk sword Strike, you can Step as a free action as your next action.</p>"
        },
        "duration": {
            "expiry": "turn-start",
            "sustained": false,
            "unit": "unlimited",
            "value": -1
        },
        "level": {
            "value": 0
        },
        "rules": [
            {
                "key": "PF2E.RuleElement.TokenEffectIcon"
            }
        ],
        "source": {
            "value": ""
        },
        "start": {
            "initiative": null,
            "value": 0
        },
        "target": null,
        "traits": {
            "custom": "",
            "rarity": {
                "value": "common"
            },
            "value": []
        }
    },
    "effects": [],
    "flags": {},
    "img": "systems/pf2e/icons/equipment/weapons/specific-magic-weapons/storm-flash.webp",
    "name": "Stance: Peafowl Stance",
    "permission": {
        "default": 0
    },
    "type": "effect"
}
